<svg width="140" height="146" viewBox="0 0 140 146" fill="none" xmlns="http://www.w3.org/2000/svg">
<path d="M106.995 101.661C120.767 95.9585 130.074 80.919 129.003 66.0454C127.932 51.1718 116.588 37.6106 102.137 33.945C93.9914 31.8784 84.8953 32.5874 77.7753 28.1072C72.2995 24.6678 68.9959 18.7546 65.3002 13.4448C61.6044 8.13492 56.6868 2.9005 50.2606 2.16134C45.0413 1.55795 40.003 4.06202 35.4776 6.71695C28.0407 11.0765 20.8755 16.0997 15.2187 22.6012C3.33186 36.2379 -0.816452 56.195 4.65933 73.452C6.37899 78.8826 8.95849 83.9812 11.5832 89.0346C14.9472 95.506 18.5222 102.083 24.1036 106.789C30.4543 112.145 38.8113 114.528 47.0627 115.614C67.6534 118.314 89.1492 113.472 106.602 102.219" fill="white"/>
<path d="M58.6478 114.633C58.6478 114.633 62.9017 119.053 71.6207 117.334C80.3397 115.629 81.818 117.696 84.4126 113.381C87.0222 109.067 86.7507 100.936 79.4346 93.8163C72.1185 86.6812 59.7791 91.3123 52.7496 96.1092C45.7201 100.891 58.6478 114.633 58.6478 114.633Z" fill="#E89E0A"/>
<path d="M69.4334 108.705C69.4334 108.705 68.6792 99.5335 72.9934 90.1055C72.9934 90.1055 75.4523 97.3009 79.133 101.148C82.8136 105.009 75.1506 110.576 69.4334 108.705Z" fill="#2D1F04"/>
<path d="M61.0615 107.92C60.5184 108.976 60.0357 109.866 59.734 110.802C59.5681 111.269 59.4625 111.737 59.3871 112.25C59.2815 112.763 59.2966 113.276 59.2362 113.894C58.844 113.441 58.5574 112.883 58.4669 112.28C58.3613 111.677 58.4066 111.028 58.6178 110.44C58.8139 109.851 59.1457 109.323 59.553 108.886C59.9754 108.448 60.4732 108.086 61.0615 107.92Z" fill="#A06600"/>
<path d="M83.1765 113.517C82.5882 112.401 82.1206 111.405 81.5172 110.5C81.2306 110.047 80.8987 109.625 80.5216 109.218C80.1595 108.78 79.7221 108.433 79.2695 107.981C79.9031 107.981 80.5517 108.147 81.1099 108.509C81.668 108.841 82.1507 109.323 82.4977 109.866C82.8597 110.409 83.1011 111.013 83.2217 111.646C83.3273 112.25 83.3575 112.898 83.1765 113.517Z" fill="#A06600"/>
<path d="M84.774 107.392C84.0952 106.714 83.6125 106.155 83.0544 105.748C82.7828 105.537 82.4962 105.371 82.1644 105.22C81.8325 105.054 81.4403 104.964 80.9727 104.783C81.3498 104.481 81.8174 104.3 82.3303 104.315C82.8281 104.315 83.3561 104.496 83.7633 104.813C84.1706 105.13 84.4723 105.537 84.6533 105.989C84.8193 106.427 84.8947 106.91 84.774 107.392Z" fill="#A06600"/>
<path d="M64.0327 109.338C64.0025 109.957 63.9723 110.5 63.9723 111.043C63.9723 111.586 63.9874 112.114 64.0176 112.627C64.0628 113.155 64.1081 113.683 64.1835 114.211C64.2438 114.754 64.3494 115.297 64.3796 115.93C63.912 115.538 63.5499 115.025 63.2935 114.482C63.022 113.939 62.8862 113.321 62.841 112.702C62.7957 112.084 62.8711 111.465 63.0521 110.877C63.2482 110.304 63.5499 109.746 64.0327 109.338Z" fill="#A06600"/>
<path d="M67.8188 110.319C68.1959 111.375 68.3467 112.355 68.5127 113.32L68.7389 114.754L69.0256 116.277C68.5127 116.006 68.1506 115.553 67.864 115.07C67.5925 114.573 67.4266 114.045 67.3511 113.501C67.2606 112.958 67.2606 112.415 67.3361 111.887C67.3964 111.344 67.5171 110.801 67.8188 110.319Z" fill="#A06600"/>
<path d="M71.8779 110.048C72.3003 110.41 72.602 110.832 72.8735 111.285C73.1299 111.737 73.326 112.205 73.4618 112.703C73.5976 113.2 73.673 113.713 73.673 114.241C73.6579 114.769 73.5976 115.312 73.3411 115.81C73.0998 115.312 72.9188 114.86 72.7528 114.392C72.5869 113.939 72.436 113.487 72.3154 113.019C72.1796 112.552 72.074 112.084 71.9986 111.601C71.9232 111.104 71.8477 110.606 71.8779 110.048Z" fill="#A06600"/>
<path d="M76.0859 109.61C76.5687 109.867 76.9156 110.259 77.2173 110.681C77.5039 111.104 77.7302 111.571 77.881 112.054C78.1676 113.019 78.2431 114.075 77.8509 115.071C77.5642 114.603 77.3832 114.166 77.2022 113.713C77.0363 113.276 76.8854 112.838 76.7497 112.401C76.6139 111.963 76.4932 111.526 76.3726 111.073C76.267 110.591 76.1764 110.138 76.0859 109.61Z" fill="#A06600"/>
<path d="M75.5133 94.4045C75.4379 94.0575 75.5586 93.7709 75.7094 93.5145C75.8754 93.2731 76.1017 93.077 76.3732 92.9564C76.9011 92.7301 77.5498 92.7301 78.0325 93.2128C77.7911 93.4542 77.58 93.5899 77.3989 93.7257C77.2028 93.8464 77.052 93.9519 76.871 94.0274C76.69 94.1028 76.5089 94.1782 76.2978 94.2235C76.0715 94.2838 75.8452 94.3442 75.5133 94.4045Z" fill="#A06600"/>
<path d="M76.6602 96.4861C76.6752 96.0789 76.8864 95.747 77.1429 95.4905C77.4144 95.2341 77.7312 95.0531 78.0781 94.9626C78.4251 94.857 78.7871 94.8419 79.1341 94.9022C79.481 94.9626 79.8129 95.0983 80.1146 95.3699C79.7827 95.5961 79.4961 95.7168 79.2095 95.8375C78.9229 95.9431 78.6664 96.0336 78.41 96.109C78.1536 96.1844 77.8971 96.2448 77.6105 96.3051L76.6602 96.4861Z" fill="#A06600"/>
<path d="M78.0469 98.8394C78.1525 98.417 78.424 98.1002 78.7106 97.8287C79.0123 97.5723 79.3743 97.3762 79.7665 97.2706C80.5359 97.0443 81.4862 97.1801 82.0594 97.8287C81.6371 97.9795 81.3203 98.0399 81.0035 98.1455L80.0984 98.4019C79.7967 98.4924 79.495 98.5679 79.1631 98.6433C78.8162 98.7187 78.4692 98.7941 78.0469 98.8394Z" fill="#A06600"/>
<path d="M79.9336 101.253C79.9939 100.876 80.2504 100.605 80.5068 100.394C80.7783 100.197 81.0951 100.077 81.4119 100.032C81.7287 99.9863 82.0605 100.001 82.3622 100.092C82.6639 100.197 82.9656 100.348 83.207 100.635C82.8902 100.831 82.6036 100.937 82.3472 101.027C82.0756 101.118 81.8343 101.163 81.5929 101.193C81.3516 101.238 81.1102 101.253 80.8387 101.253C80.5822 101.268 80.3107 101.253 79.9336 101.253Z" fill="#A06600"/>
<path d="M69.4334 108.705C69.4334 108.705 68.5283 95.9128 76.3422 84.916C76.3422 84.916 97.1592 92.6394 108.714 75.1712C108.714 75.1712 114.597 67.84 111.082 54.0374C111.082 54.0374 107.01 34.0501 103.993 29.4794C100.976 24.9087 82.9946 14.4549 65.1191 30.1884C47.2436 45.9218 51.1506 96.3352 52.6138 99.4577C52.5987 99.4728 67.1857 112.461 69.4334 108.705Z" fill="#FFCDBD"/>
<path d="M25.0546 145.376C25.0546 145.376 8.67256 141.846 1.09999 130.608C-6.47257 119.37 26.2011 13.565 63.8225 2.65873C101.444 -8.24757 108.775 17.9245 108.775 17.9245C108.775 17.9245 114.07 33.4317 118.339 35.6793C118.339 35.6793 115.654 37.7007 107.267 37.8214L105.638 32.059L104.657 38.1532C104.657 38.1532 91.4126 41.0193 77.8816 37.4593C77.8816 37.4593 79.0129 29.3286 78.2134 24.8635C78.2134 24.8635 74.9551 37.8817 72.9036 39.0583L67.4881 38.9376C67.4881 38.9376 49.0696 80.3454 58.0903 108.841C58.0903 108.841 63.6415 123.699 69.057 130.08C69.057 130.08 50.8496 146.145 25.0546 145.376Z" fill="#0B1838"/>
<path d="M7.10352 129.069C7.52589 124.815 8.18962 120.577 8.89861 116.353C9.65284 112.129 10.5127 107.936 11.4479 103.757C13.3486 95.4001 15.7471 87.1638 18.5227 79.0482C21.4039 70.9778 24.6924 63.0281 28.6597 55.4103C30.666 51.624 32.8382 47.9132 35.1612 44.3079C37.5597 40.7479 40.0939 37.2935 42.8695 34.0352C40.3051 37.4594 37.8765 40.9742 35.659 44.6247C33.4566 48.2752 31.3749 52.0162 29.4893 55.8327C27.6339 59.6793 25.8087 63.5259 24.1946 67.4781C22.5654 71.4303 21.0569 75.4127 19.6541 79.4404C18.2361 83.468 16.9237 87.5258 15.7018 91.6138C14.48 95.7018 13.409 99.835 12.3379 103.968C11.282 108.101 10.3317 112.28 9.47183 116.458C8.56674 120.637 7.78233 124.846 7.10352 129.069Z" fill="#1E3F82"/>
<path d="M23.1387 103.667C23.5309 99.0809 24.3002 94.5404 25.2958 90.0451C26.2914 85.5498 27.5736 81.1149 29.067 76.7554C30.6207 72.411 32.4611 68.1571 34.6031 64.0842C36.8055 60.0264 39.4152 56.1798 42.4472 52.7253C41.1952 54.6562 39.7923 56.4664 38.7062 58.4877C37.4843 60.4186 36.5038 62.4852 35.4328 64.5066L33.9997 67.614C33.7734 68.142 33.5019 68.6398 33.2907 69.1678L32.6421 70.7517C32.2197 71.8076 31.737 72.8484 31.3599 73.9346L30.1833 77.1476C28.6748 81.4619 27.3624 85.8364 26.1858 90.2714C25.6126 92.4888 25.0544 94.7063 24.5566 96.9389C24.0287 99.1563 23.5761 101.404 23.1387 103.667Z" fill="#1E3F82"/>
<path d="M89.0742 5.82629C92.2571 6.23358 95.2892 7.66664 97.7781 9.71817C98.0949 9.95953 98.3966 10.2311 98.6983 10.5177C98.9849 10.7892 99.3017 11.0607 99.5581 11.3775L100.373 12.2826L101.112 13.248C101.368 13.5648 101.58 13.9117 101.791 14.2587C102.002 14.6056 102.228 14.9375 102.424 15.2845C102.816 15.9784 103.209 16.6723 103.586 17.3812C105.079 20.2172 106.437 23.1135 107.779 26.0097C108.443 27.4579 109.122 28.906 109.861 30.324C110.585 31.742 111.385 33.1298 112.501 34.2762C111.279 33.2203 110.419 31.8325 109.605 30.4598C108.805 29.072 108.096 27.6389 107.372 26.2058C105.954 23.3397 104.581 20.4585 103.073 17.6528C102.711 16.9438 102.319 16.2499 101.942 15.5409C101.745 15.1939 101.534 14.8621 101.323 14.5302C101.112 14.1984 100.916 13.8514 100.674 13.5497C99.7844 12.2373 98.6681 11.106 97.5066 10.05C96.3149 9.00918 95.0025 8.11918 93.5846 7.4102C92.1515 6.70121 90.643 6.14307 89.0742 5.82629Z" fill="#1E3F82"/>
<path d="M80.2198 8.04407C78.9678 8.48153 77.8213 9.16034 76.7956 9.95983C75.7698 10.7593 74.8194 11.6644 74.0501 12.7204C72.4361 14.7719 71.365 17.2005 70.7164 19.7197C70.0225 22.2389 69.8716 24.8787 69.5699 27.5034L69.1023 31.4406L68.8157 33.4016C68.7704 33.7335 68.7101 34.0502 68.6498 34.3821L68.5894 34.6235C68.5743 34.6687 68.5894 34.6989 68.5291 34.7592C68.4537 34.7592 68.4838 34.6989 68.4688 34.6838V34.6235C68.4688 34.4575 68.4838 34.2916 68.4838 34.1257C68.4838 34.2916 68.4838 34.4575 68.514 34.6235L68.5291 34.6838C68.5291 34.6989 68.5593 34.714 68.514 34.714C68.4989 34.714 68.5291 34.6536 68.5291 34.6235L68.5593 34.3821C68.6045 34.0502 68.6347 33.7335 68.6498 33.4016L68.8006 31.4255L69.1023 27.4733C69.1476 26.8095 69.1928 26.1609 69.2532 25.4972C69.2984 24.8334 69.3588 24.1848 69.4493 23.5211C69.5398 22.8573 69.585 22.1936 69.7208 21.545L70.1432 19.5839C70.8521 17.0195 71.9684 14.5004 73.7032 12.4488C75.3927 10.3973 77.6554 8.72288 80.2198 8.04407Z" fill="#1E3F82"/>
<path d="M87.3398 9.89954C88.7578 11.3175 89.5724 13.2182 90.3266 15.0585C91.0507 16.929 91.5937 18.8599 92.0312 20.8058C92.2575 21.7713 92.4234 22.7669 92.6044 23.7474C92.7553 24.7279 92.9212 25.7235 93.0419 26.704L93.4341 29.6606C93.5397 30.6562 93.6755 31.6367 93.766 32.6323C93.5397 31.6669 93.3587 30.6864 93.1475 29.7209L92.5893 26.7945L92.0463 23.868C91.8351 22.9026 91.6843 21.9221 91.4429 20.9567C91.0205 19.0258 90.5076 17.1101 89.8892 15.2396C89.5573 14.3043 89.2405 13.369 88.8182 12.479C88.4109 11.5589 87.9734 10.6689 87.3398 9.89954Z" fill="#1E3F82"/>
<path d="M52.6616 59.7544C51.5755 63.5558 50.7156 67.4175 49.9614 71.2792C49.2373 75.156 48.6792 79.0478 48.3624 82.9548C48.0456 86.8618 47.9853 90.7989 48.2568 94.7058C48.4077 96.6669 48.649 98.6128 48.9658 100.544C49.2826 102.49 49.7804 104.39 50.3234 106.306C49.5239 104.496 48.9205 102.595 48.4077 100.664C47.94 98.7335 47.5629 96.7725 47.3366 94.7813C47.1104 92.8052 46.9897 90.814 46.9746 88.8077C46.9746 86.8165 47.035 84.8253 47.1858 82.8341C47.3668 80.858 47.5931 78.8668 47.9099 76.9058C48.2266 74.9448 48.6038 72.9838 49.0714 71.0529C49.9765 67.2214 51.138 63.4049 52.6616 59.7544Z" fill="#1E3F82"/>
<path d="M63.506 59.6494C63.506 59.6494 54.8473 56.4062 54.1836 48.3207C54.1836 48.3207 54.5607 43.0863 59.3577 43.3729C64.1697 43.6595 64.6826 48.3962 64.6826 48.3962L63.506 59.6494Z" fill="#FFCDBD"/>
<path d="M61.5286 47.2648C60.9554 46.9933 60.352 46.7972 59.8542 46.8424C59.3564 46.8877 59.0698 47.1441 58.8435 47.5514C58.6173 47.9587 58.4513 48.4867 58.3306 49.0146C58.2251 49.5124 58.1949 49.9951 58.2552 50.508C58.3306 51.0209 58.4664 51.5187 58.6625 52.0316C58.8737 52.5294 59.1301 53.0121 59.4469 53.4797C59.7637 53.9323 60.1257 54.3848 60.5481 54.7619C60.9705 55.1541 61.4532 55.486 62.0717 55.6821C61.4381 55.8933 60.7291 55.7575 60.0956 55.5162C59.462 55.2597 58.8888 54.8675 58.391 54.3999C57.8932 53.9172 57.4859 53.3741 57.154 52.7557C56.8373 52.1372 56.611 51.4584 56.5054 50.7343C56.4149 50.0102 56.5054 49.2409 56.7317 48.5621C56.973 47.9285 57.2445 47.2648 57.7725 46.6916C57.9083 46.5558 58.0742 46.4201 58.2251 46.2994C58.4061 46.1938 58.5871 46.0882 58.7832 46.0278C59.1905 45.9072 59.6129 45.8921 59.99 46.0128C60.699 46.2239 61.1968 46.7067 61.5286 47.2648Z" fill="#B26356"/>
<path d="M78.8633 55.7575C78.999 54.8675 79.4667 54.083 80.1002 53.4495C80.7338 52.8008 81.5785 52.3332 82.5138 52.1371C83.434 51.9561 84.4296 52.0013 85.2592 52.3634C85.4704 52.4388 85.6816 52.5293 85.8626 52.65C86.0587 52.7707 86.2397 52.8914 86.4208 53.012C86.7677 53.2986 87.0694 53.6003 87.3409 53.9624C86.8733 53.9473 86.4811 53.8568 86.0889 53.8115C85.8928 53.7964 85.6967 53.7814 85.5006 53.7512L85.2291 53.721H84.9575C84.2335 53.6456 83.5547 53.7512 82.906 53.8719C82.2574 54.0076 81.6087 54.2339 80.945 54.5658C80.2662 54.8825 79.6024 55.2898 78.8633 55.7575Z" fill="#0B1838"/>
<path d="M102.697 52.318C102.969 51.7599 103.452 51.4129 103.995 51.2017C104.538 50.9905 105.201 50.9755 105.79 51.1716C106.378 51.3677 106.921 51.7448 107.238 52.2426C107.419 52.4689 107.509 52.7555 107.6 53.027C107.66 53.3136 107.69 53.6002 107.66 53.9019C107.358 53.7963 107.132 53.6606 106.906 53.555C106.665 53.4645 106.484 53.3287 106.287 53.2684C105.91 53.0722 105.578 52.9817 105.247 52.8611C104.915 52.7555 104.568 52.665 104.145 52.5895L102.697 52.318Z" fill="#0B1838"/>
<path opacity="0.6" d="M115.684 60.4485C115.684 63.6314 99.7542 66.2109 80.0987 66.2109C60.4432 66.2109 44.5137 63.6314 44.5137 60.4485C44.5137 57.2656 60.4432 54.6861 80.0987 54.6861C99.7542 54.671 115.684 57.2656 115.684 60.4485Z" fill="url(#paint0_radial)"/>
<path opacity="0.6" d="M139.396 60.449C139.396 62.8625 125.201 64.8085 107.673 64.8085C90.1591 64.8085 75.9492 62.8474 75.9492 60.449C75.9492 58.0354 90.144 56.0894 107.673 56.0894C125.201 56.0744 139.396 58.0354 139.396 60.449Z" fill="url(#paint1_radial)"/>
<path d="M71.5019 43.3573C71.5019 43.3573 68.3794 31.4102 69.2543 25.4969C69.2543 25.4969 83.434 15.8577 102.697 22.5252C102.697 22.5252 105.503 28.6195 105.186 39.6012C105.201 39.6163 91.9267 37.2781 71.5019 43.3573Z" fill="white"/>
<path d="M74.5023 52.1373C74.5023 52.1373 73.1598 52.5597 73.6576 51.3076C74.1554 50.0405 78.2886 46.5107 81.7581 46.2995C85.2276 46.0883 80.4457 48.351 78.711 49.2712C76.9611 50.1612 74.5023 52.1373 74.5023 52.1373Z" fill="#0B1838"/>
<path d="M108.006 47.8076C108.006 47.8076 108.926 47.7774 108.459 46.8422C107.991 45.9069 104.868 44.1118 102.575 44.9566C100.283 45.7862 103.677 46.3293 104.914 46.5857C106.166 46.8573 108.006 47.8076 108.006 47.8076Z" fill="#0B1838"/>
<path d="M88.7266 70.9927C89.3149 70.1178 90.1144 69.4239 91.0044 68.8658C91.8944 68.3227 92.9201 67.9154 94.0515 67.8249C95.1678 67.7042 96.4349 67.9908 97.3551 68.7602C98.2752 69.5144 98.7278 70.6005 98.8032 71.6414C98.064 70.8871 97.3701 70.2536 96.6008 69.9368C95.8466 69.6049 95.0622 69.5295 94.2174 69.6049C93.3727 69.6803 92.4827 69.8915 91.5776 70.1631C90.6725 70.4044 89.7372 70.7212 88.7266 70.9927Z" fill="#0B1838"/>
<path d="M97.0686 51.6091C97.0686 51.6091 97.0988 49.4369 95.9976 51.3829C94.8964 53.3288 93.1013 57.2056 93.1616 59.1063C93.222 61.0069 94.8964 65.5022 97.2496 63.5714C99.6028 61.6405 98.743 59.1968 98.0642 56.9039C97.4005 54.611 97.0686 51.6091 97.0686 51.6091Z" fill="#FF9C85"/>
<defs>
<radialGradient id="paint0_radial" cx="0" cy="0" r="1" gradientUnits="userSpaceOnUse" gradientTransform="translate(80.0969 60.4463) scale(27.2384 10.6543)">
<stop stop-color="#B34130" stop-opacity="0.9367"/>
<stop offset="0.6367" stop-color="#FFBFAD" stop-opacity="0"/>
</radialGradient>
<radialGradient id="paint1_radial" cx="0" cy="0" r="1" gradientUnits="userSpaceOnUse" gradientTransform="translate(107.685 60.4467) scale(24.278 8.06297)">
<stop stop-color="#B34130" stop-opacity="0.9367"/>
<stop offset="0.6367" stop-color="#FFBFAD" stop-opacity="0"/>
</radialGradient>
</defs>
</svg>
