<svg width="223" height="179" viewBox="0 0 223 179" fill="none" xmlns="http://www.w3.org/2000/svg">
<path d="M222.002 84.0293C222.002 135.391 214.255 190.151 128.458 177.028C42.6612 163.904 0.480469 160.494 0.480469 109.133C0.480469 57.771 33.192 52.6491 99.476 29.5423C165.76 6.4355 222.002 32.6677 222.002 84.0293Z" fill="#1A1D21"/>
<mask id="mask0" mask-type="alpha" maskUnits="userSpaceOnUse" x="0" y="0" width="222" height="179">
<path d="M221.524 83.5547C221.524 134.916 213.777 189.676 127.98 176.553C113.795 174.383 100.802 172.479 88.9955 170.58C5.00202 178.346 0.0027754 167.89 0.00241628 108.658C0.00241628 57.2963 -1.50799 3.07673 70.9972 1.08511C143.502 -0.906508 221.524 -2.49994 221.524 83.5547Z" fill="#363738"/>
</mask>
<g mask="url(#mask0)">
<path d="M147.119 106.276C146.061 106.276 145.103 106.107 144.244 105.77C143.401 105.417 142.672 104.896 142.059 104.206C141.461 103.516 141.001 102.665 140.679 101.653C140.357 100.626 140.196 99.4373 140.196 98.088C140.196 96.7387 140.357 95.5427 140.679 94.5C141.001 93.442 141.461 92.5603 142.059 91.855C142.672 91.1343 143.401 90.59 144.244 90.222C145.103 89.854 146.061 89.67 147.119 89.67C148.56 89.67 149.756 89.9767 150.707 90.59C151.658 91.2033 152.417 92.131 152.984 93.373L150.385 94.753C150.155 94.0323 149.779 93.4573 149.258 93.028C148.737 92.5833 148.024 92.361 147.119 92.361C145.984 92.361 145.08 92.7443 144.405 93.511C143.746 94.2777 143.416 95.351 143.416 96.731V99.261C143.416 100.656 143.746 101.73 144.405 102.481C145.08 103.217 145.984 103.585 147.119 103.585C148.024 103.585 148.76 103.34 149.327 102.849C149.91 102.358 150.331 101.753 150.592 101.032L153.053 102.481C152.47 103.677 151.696 104.612 150.73 105.287C149.764 105.946 148.56 106.276 147.119 106.276ZM160.312 106.276C159.423 106.276 158.625 106.13 157.92 105.839C157.23 105.532 156.64 105.111 156.149 104.574C155.674 104.022 155.306 103.363 155.045 102.596C154.784 101.814 154.654 100.94 154.654 99.974C154.654 99.0233 154.777 98.1647 155.022 97.398C155.283 96.6313 155.651 95.9797 156.126 95.443C156.601 94.891 157.184 94.4693 157.874 94.178C158.564 93.8713 159.346 93.718 160.22 93.718C161.155 93.718 161.968 93.879 162.658 94.201C163.348 94.523 163.915 94.96 164.36 95.512C164.805 96.064 165.134 96.708 165.349 97.444C165.579 98.1647 165.694 98.939 165.694 99.767V100.733H157.713V101.032C157.713 101.906 157.958 102.611 158.449 103.148C158.94 103.669 159.668 103.93 160.634 103.93C161.37 103.93 161.968 103.777 162.428 103.47C162.903 103.163 163.325 102.772 163.693 102.297L165.28 104.068C164.789 104.758 164.115 105.302 163.256 105.701C162.413 106.084 161.431 106.276 160.312 106.276ZM160.266 95.926C159.484 95.926 158.863 96.1867 158.403 96.708C157.943 97.2293 157.713 97.904 157.713 98.732V98.916H162.635V98.709C162.635 97.881 162.428 97.214 162.014 96.708C161.615 96.1867 161.033 95.926 160.266 95.926ZM168.284 88.98H171.228V99.238H171.343L172.93 97.076L175.621 93.994H178.956L174.816 98.64L179.393 106H175.897L172.815 100.618L171.228 102.343V106H168.284V88.98ZM186.635 88.98H189.579V99.238H189.694L191.281 97.076L193.972 93.994H197.307L193.167 98.64L197.744 106H194.248L191.166 100.618L189.579 102.343V106H186.635V88.98ZM203.841 106.276C202.952 106.276 202.154 106.13 201.449 105.839C200.759 105.532 200.169 105.111 199.678 104.574C199.203 104.022 198.835 103.363 198.574 102.596C198.313 101.814 198.183 100.94 198.183 99.974C198.183 99.0233 198.306 98.1647 198.551 97.398C198.812 96.6313 199.18 95.9797 199.655 95.443C200.13 94.891 200.713 94.4693 201.403 94.178C202.093 93.8713 202.875 93.718 203.749 93.718C204.684 93.718 205.497 93.879 206.187 94.201C206.877 94.523 207.444 94.96 207.889 95.512C208.334 96.064 208.663 96.708 208.878 97.444C209.108 98.1647 209.223 98.939 209.223 99.767V100.733H201.242V101.032C201.242 101.906 201.487 102.611 201.978 103.148C202.469 103.669 203.197 103.93 204.163 103.93C204.899 103.93 205.497 103.777 205.957 103.47C206.432 103.163 206.854 102.772 207.222 102.297L208.809 104.068C208.318 104.758 207.644 105.302 206.785 105.701C205.942 106.084 204.96 106.276 203.841 106.276ZM203.795 95.926C203.013 95.926 202.392 96.1867 201.932 96.708C201.472 97.2293 201.242 97.904 201.242 98.732V98.916H206.164V98.709C206.164 97.881 205.957 97.214 205.543 96.708C205.144 96.1867 204.562 95.926 203.795 95.926ZM140.702 129V116.994H143.646V119.478H143.761C143.838 119.156 143.953 118.849 144.106 118.558C144.275 118.251 144.489 117.983 144.75 117.753C145.011 117.523 145.317 117.339 145.67 117.201C146.038 117.063 146.46 116.994 146.935 116.994H147.579V119.777H146.659C145.662 119.777 144.911 119.923 144.405 120.214C143.899 120.505 143.646 120.981 143.646 121.64V129H140.702ZM156.907 126.999H156.792C156.685 127.306 156.539 127.597 156.355 127.873C156.187 128.134 155.964 128.371 155.688 128.586C155.428 128.801 155.106 128.969 154.722 129.092C154.354 129.215 153.925 129.276 153.434 129.276C152.192 129.276 151.242 128.87 150.582 128.057C149.923 127.244 149.593 126.087 149.593 124.584V116.994H152.537V124.285C152.537 125.113 152.698 125.749 153.02 126.194C153.342 126.623 153.856 126.838 154.561 126.838C154.853 126.838 155.136 126.8 155.412 126.723C155.704 126.646 155.957 126.531 156.171 126.378C156.386 126.209 156.562 126.01 156.7 125.78C156.838 125.535 156.907 125.251 156.907 124.929V116.994H159.851V129H156.907V126.999ZM163.253 129V116.994H166.197V118.995H166.312C166.542 118.366 166.91 117.83 167.416 117.385C167.922 116.94 168.627 116.718 169.532 116.718C170.36 116.718 171.073 116.917 171.671 117.316C172.269 117.715 172.713 118.32 173.005 119.133H173.051C173.265 118.458 173.687 117.891 174.316 117.431C174.96 116.956 175.765 116.718 176.731 116.718C177.911 116.718 178.816 117.124 179.445 117.937C180.089 118.75 180.411 119.907 180.411 121.41V129H177.467V121.709C177.467 119.992 176.823 119.133 175.535 119.133C175.243 119.133 174.96 119.179 174.684 119.271C174.423 119.348 174.185 119.47 173.971 119.639C173.771 119.792 173.61 119.992 173.488 120.237C173.365 120.467 173.304 120.743 173.304 121.065V129H170.36V121.709C170.36 119.992 169.716 119.133 168.428 119.133C168.152 119.133 167.876 119.179 167.6 119.271C167.339 119.348 167.101 119.47 166.887 119.639C166.687 119.792 166.519 119.992 166.381 120.237C166.258 120.467 166.197 120.743 166.197 121.065V129H163.253ZM192.502 129C191.858 129 191.344 128.816 190.961 128.448C190.593 128.065 190.363 127.559 190.271 126.93H190.133C189.933 127.712 189.527 128.302 188.914 128.701C188.3 129.084 187.541 129.276 186.637 129.276C185.41 129.276 184.467 128.954 183.808 128.31C183.148 127.666 182.819 126.807 182.819 125.734C182.819 124.492 183.263 123.572 184.153 122.974C185.042 122.361 186.307 122.054 187.948 122.054H189.995V121.18C189.995 120.505 189.818 119.984 189.466 119.616C189.113 119.248 188.546 119.064 187.764 119.064C187.074 119.064 186.514 119.217 186.085 119.524C185.671 119.815 185.318 120.168 185.027 120.582L183.279 119.018C183.723 118.328 184.314 117.776 185.05 117.362C185.786 116.933 186.759 116.718 187.971 116.718C189.596 116.718 190.83 117.086 191.674 117.822C192.517 118.558 192.939 119.616 192.939 120.996V126.654H194.135V129H192.502ZM187.626 127.137C188.285 127.137 188.845 126.991 189.305 126.7C189.765 126.409 189.995 125.979 189.995 125.412V123.825H188.109C186.575 123.825 185.809 124.316 185.809 125.297V125.688C185.809 126.179 185.962 126.547 186.269 126.792C186.591 127.022 187.043 127.137 187.626 127.137ZM196.517 111.98H199.461V118.995H199.576C199.822 118.351 200.205 117.814 200.726 117.385C201.263 116.94 201.999 116.718 202.934 116.718C204.176 116.718 205.127 117.124 205.786 117.937C206.446 118.75 206.775 119.907 206.775 121.41V129H203.831V121.709C203.831 120.85 203.678 120.206 203.371 119.777C203.065 119.348 202.559 119.133 201.853 119.133C201.547 119.133 201.248 119.179 200.956 119.271C200.68 119.348 200.427 119.47 200.197 119.639C199.983 119.792 199.806 119.992 199.668 120.237C199.53 120.467 199.461 120.743 199.461 121.065V129H196.517V111.98ZM144.635 152.276C143.485 152.276 142.519 152.084 141.737 151.701C140.955 151.302 140.265 150.758 139.667 150.068L141.461 148.32C141.906 148.826 142.389 149.225 142.91 149.516C143.447 149.807 144.06 149.953 144.75 149.953C145.455 149.953 145.961 149.83 146.268 149.585C146.59 149.34 146.751 149.002 146.751 148.573C146.751 148.22 146.636 147.944 146.406 147.745C146.191 147.53 145.816 147.385 145.279 147.308L144.083 147.147C142.78 146.978 141.783 146.61 141.093 146.043C140.418 145.46 140.081 144.617 140.081 143.513C140.081 142.93 140.188 142.409 140.403 141.949C140.618 141.474 140.924 141.075 141.323 140.753C141.722 140.416 142.197 140.163 142.749 139.994C143.316 139.81 143.945 139.718 144.635 139.718C145.218 139.718 145.731 139.764 146.176 139.856C146.636 139.933 147.05 140.055 147.418 140.224C147.786 140.377 148.123 140.577 148.43 140.822C148.737 141.052 149.036 141.313 149.327 141.604L147.602 143.329C147.249 142.961 146.828 142.654 146.337 142.409C145.846 142.164 145.31 142.041 144.727 142.041C144.083 142.041 143.615 142.156 143.324 142.386C143.048 142.616 142.91 142.915 142.91 143.283C142.91 143.682 143.025 143.988 143.255 144.203C143.5 144.402 143.907 144.548 144.474 144.64L145.693 144.801C148.284 145.169 149.58 146.35 149.58 148.343C149.58 148.926 149.457 149.462 149.212 149.953C148.982 150.428 148.652 150.842 148.223 151.195C147.794 151.532 147.272 151.801 146.659 152C146.061 152.184 145.386 152.276 144.635 152.276ZM161.012 152C160.368 152 159.854 151.816 159.471 151.448C159.103 151.065 158.873 150.559 158.781 149.93H158.643C158.443 150.712 158.037 151.302 157.424 151.701C156.81 152.084 156.051 152.276 155.147 152.276C153.92 152.276 152.977 151.954 152.318 151.31C151.658 150.666 151.329 149.807 151.329 148.734C151.329 147.492 151.773 146.572 152.663 145.974C153.552 145.361 154.817 145.054 156.458 145.054H158.505V144.18C158.505 143.505 158.328 142.984 157.976 142.616C157.623 142.248 157.056 142.064 156.274 142.064C155.584 142.064 155.024 142.217 154.595 142.524C154.181 142.815 153.828 143.168 153.537 143.582L151.789 142.018C152.233 141.328 152.824 140.776 153.56 140.362C154.296 139.933 155.269 139.718 156.481 139.718C158.106 139.718 159.34 140.086 160.184 140.822C161.027 141.558 161.449 142.616 161.449 143.996V149.654H162.645V152H161.012ZM156.136 150.137C156.795 150.137 157.355 149.991 157.815 149.7C158.275 149.409 158.505 148.979 158.505 148.412V146.825H156.619C155.085 146.825 154.319 147.316 154.319 148.297V148.688C154.319 149.179 154.472 149.547 154.779 149.792C155.101 150.022 155.553 150.137 156.136 150.137ZM165.027 134.98H167.971V145.238H168.086L169.673 143.076L172.364 139.994H175.699L171.559 144.64L176.136 152H172.64L169.558 146.618L167.971 148.343V152H165.027V134.98ZM179.414 138.246C178.801 138.246 178.356 138.108 178.08 137.832C177.82 137.556 177.689 137.203 177.689 136.774V136.314C177.689 135.885 177.82 135.532 178.08 135.256C178.356 134.98 178.801 134.842 179.414 134.842C180.012 134.842 180.449 134.98 180.725 135.256C181.001 135.532 181.139 135.885 181.139 136.314V136.774C181.139 137.203 181.001 137.556 180.725 137.832C180.449 138.108 180.012 138.246 179.414 138.246ZM177.942 139.994H180.886V152H177.942V139.994ZM188.048 152C187.036 152 186.261 151.739 185.725 151.218C185.203 150.681 184.943 149.922 184.943 148.941V142.34H183.172V139.994H184.092C184.536 139.994 184.835 139.894 184.989 139.695C185.157 139.48 185.242 139.166 185.242 138.752V136.705H187.887V139.994H190.348V142.34H187.887V149.654H190.164V152H188.048Z" fill="white"/>
<path d="M135.465 162.51H136.635C136.852 162.51 137.048 162.547 137.225 162.62C137.402 162.693 137.552 162.803 137.675 162.95C137.802 163.093 137.898 163.275 137.965 163.495C138.032 163.712 138.065 163.965 138.065 164.255C138.065 164.545 138.032 164.8 137.965 165.02C137.898 165.237 137.802 165.418 137.675 165.565C137.552 165.708 137.402 165.817 137.225 165.89C137.048 165.963 136.852 166 136.635 166H135.465V162.51ZM136.635 165.63C136.778 165.63 136.91 165.607 137.03 165.56C137.15 165.51 137.253 165.438 137.34 165.345C137.427 165.252 137.493 165.138 137.54 165.005C137.59 164.868 137.615 164.713 137.615 164.54V163.97C137.615 163.797 137.59 163.643 137.54 163.51C137.493 163.373 137.427 163.258 137.34 163.165C137.253 163.072 137.15 163.002 137.03 162.955C136.91 162.905 136.778 162.88 136.635 162.88H135.885V165.63H136.635ZM139.749 166.06C139.573 166.06 139.413 166.028 139.269 165.965C139.129 165.902 139.008 165.812 138.904 165.695C138.804 165.575 138.726 165.433 138.669 165.27C138.616 165.103 138.589 164.917 138.589 164.71C138.589 164.507 138.616 164.322 138.669 164.155C138.726 163.988 138.804 163.847 138.904 163.73C139.008 163.61 139.129 163.518 139.269 163.455C139.413 163.392 139.573 163.36 139.749 163.36C139.923 163.36 140.078 163.392 140.214 163.455C140.351 163.518 140.468 163.607 140.564 163.72C140.661 163.83 140.734 163.962 140.784 164.115C140.838 164.268 140.864 164.437 140.864 164.62V164.81H139.009V164.93C139.009 165.04 139.026 165.143 139.059 165.24C139.096 165.333 139.146 165.415 139.209 165.485C139.276 165.555 139.356 165.61 139.449 165.65C139.546 165.69 139.654 165.71 139.774 165.71C139.938 165.71 140.079 165.672 140.199 165.595C140.323 165.518 140.418 165.408 140.484 165.265L140.769 165.47C140.686 165.647 140.556 165.79 140.379 165.9C140.203 166.007 139.993 166.06 139.749 166.06ZM139.749 163.695C139.639 163.695 139.539 163.715 139.449 163.755C139.359 163.792 139.281 163.845 139.214 163.915C139.151 163.985 139.101 164.068 139.064 164.165C139.028 164.258 139.009 164.362 139.009 164.475V164.51H140.434V164.455C140.434 164.225 140.371 164.042 140.244 163.905C140.121 163.765 139.956 163.695 139.749 163.695ZM142.299 166.06C142.059 166.06 141.857 166.015 141.694 165.925C141.534 165.832 141.395 165.708 141.279 165.555L141.564 165.325C141.664 165.452 141.775 165.55 141.899 165.62C142.022 165.687 142.165 165.72 142.329 165.72C142.499 165.72 142.63 165.683 142.724 165.61C142.82 165.537 142.869 165.433 142.869 165.3C142.869 165.2 142.835 165.115 142.769 165.045C142.705 164.972 142.589 164.922 142.419 164.895L142.214 164.865C142.094 164.848 141.984 164.823 141.884 164.79C141.784 164.753 141.695 164.707 141.619 164.65C141.545 164.59 141.487 164.517 141.444 164.43C141.404 164.343 141.384 164.24 141.384 164.12C141.384 163.993 141.407 163.883 141.454 163.79C141.5 163.693 141.564 163.613 141.644 163.55C141.727 163.487 141.825 163.44 141.939 163.41C142.052 163.377 142.174 163.36 142.304 163.36C142.514 163.36 142.689 163.397 142.829 163.47C142.972 163.543 143.097 163.645 143.204 163.775L142.939 164.015C142.882 163.935 142.799 163.863 142.689 163.8C142.579 163.733 142.44 163.7 142.274 163.7C142.107 163.7 141.98 163.737 141.894 163.81C141.81 163.88 141.769 163.977 141.769 164.1C141.769 164.227 141.81 164.318 141.894 164.375C141.98 164.432 142.104 164.473 142.264 164.5L142.464 164.53C142.75 164.573 142.954 164.657 143.074 164.78C143.194 164.9 143.254 165.058 143.254 165.255C143.254 165.505 143.169 165.702 142.999 165.845C142.829 165.988 142.595 166.06 142.299 166.06ZM144.16 162.815C144.073 162.815 144.01 162.795 143.97 162.755C143.933 162.712 143.915 162.657 143.915 162.59V162.525C143.915 162.458 143.933 162.405 143.97 162.365C144.01 162.322 144.073 162.3 144.16 162.3C144.247 162.3 144.308 162.322 144.345 162.365C144.385 162.405 144.405 162.458 144.405 162.525V162.59C144.405 162.657 144.385 162.712 144.345 162.755C144.308 162.795 144.247 162.815 144.16 162.815ZM143.96 163.42H144.36V166H143.96V163.42ZM147.385 166.285C147.385 166.552 147.28 166.747 147.07 166.87C146.863 166.997 146.552 167.06 146.135 167.06C145.732 167.06 145.442 167.005 145.265 166.895C145.088 166.785 145 166.628 145 166.425C145 166.285 145.037 166.175 145.11 166.095C145.183 166.018 145.283 165.962 145.41 165.925V165.87C145.257 165.797 145.18 165.677 145.18 165.51C145.18 165.38 145.222 165.282 145.305 165.215C145.388 165.145 145.495 165.093 145.625 165.06V165.04C145.472 164.967 145.352 164.862 145.265 164.725C145.182 164.588 145.14 164.43 145.14 164.25C145.14 164.12 145.163 164 145.21 163.89C145.257 163.78 145.322 163.687 145.405 163.61C145.492 163.53 145.593 163.468 145.71 163.425C145.83 163.382 145.963 163.36 146.11 163.36C146.293 163.36 146.457 163.393 146.6 163.46V163.415C146.6 163.315 146.623 163.233 146.67 163.17C146.717 163.103 146.793 163.07 146.9 163.07H147.285V163.42H146.795V163.585C146.888 163.665 146.96 163.762 147.01 163.875C147.063 163.985 147.09 164.11 147.09 164.25C147.09 164.38 147.067 164.5 147.02 164.61C146.973 164.72 146.907 164.815 146.82 164.895C146.737 164.972 146.635 165.032 146.515 165.075C146.395 165.118 146.262 165.14 146.115 165.14C146.032 165.14 145.948 165.132 145.865 165.115C145.778 165.138 145.7 165.173 145.63 165.22C145.56 165.263 145.525 165.325 145.525 165.405C145.525 165.482 145.562 165.533 145.635 165.56C145.708 165.587 145.803 165.6 145.92 165.6H146.47C146.79 165.6 147.022 165.662 147.165 165.785C147.312 165.905 147.385 166.072 147.385 166.285ZM147.01 166.315C147.01 166.212 146.97 166.128 146.89 166.065C146.813 166.005 146.675 165.975 146.475 165.975H145.615C145.455 166.048 145.375 166.165 145.375 166.325C145.375 166.438 145.417 166.535 145.5 166.615C145.587 166.695 145.732 166.735 145.935 166.735H146.305C146.528 166.735 146.702 166.7 146.825 166.63C146.948 166.56 147.01 166.455 147.01 166.315ZM146.115 164.82C146.285 164.82 146.42 164.78 146.52 164.7C146.62 164.617 146.67 164.49 146.67 164.32V164.18C146.67 164.01 146.62 163.885 146.52 163.805C146.42 163.722 146.285 163.68 146.115 163.68C145.945 163.68 145.81 163.722 145.71 163.805C145.61 163.885 145.56 164.01 145.56 164.18V164.32C145.56 164.49 145.61 164.617 145.71 164.7C145.81 164.78 145.945 164.82 146.115 164.82ZM147.852 166V163.42H148.252V163.84H148.272C148.335 163.693 148.423 163.577 148.537 163.49C148.653 163.403 148.808 163.36 149.002 163.36C149.268 163.36 149.478 163.447 149.632 163.62C149.788 163.79 149.867 164.032 149.867 164.345V166H149.467V164.415C149.467 163.952 149.272 163.72 148.882 163.72C148.802 163.72 148.723 163.73 148.647 163.75C148.573 163.77 148.507 163.8 148.447 163.84C148.387 163.88 148.338 163.932 148.302 163.995C148.268 164.055 148.252 164.127 148.252 164.21V166H147.852ZM151.664 166.06C151.487 166.06 151.327 166.028 151.184 165.965C151.044 165.902 150.922 165.812 150.819 165.695C150.719 165.575 150.64 165.433 150.584 165.27C150.53 165.103 150.504 164.917 150.504 164.71C150.504 164.507 150.53 164.322 150.584 164.155C150.64 163.988 150.719 163.847 150.819 163.73C150.922 163.61 151.044 163.518 151.184 163.455C151.327 163.392 151.487 163.36 151.664 163.36C151.837 163.36 151.992 163.392 152.129 163.455C152.265 163.518 152.382 163.607 152.479 163.72C152.575 163.83 152.649 163.962 152.699 164.115C152.752 164.268 152.779 164.437 152.779 164.62V164.81H150.924V164.93C150.924 165.04 150.94 165.143 150.974 165.24C151.01 165.333 151.06 165.415 151.124 165.485C151.19 165.555 151.27 165.61 151.364 165.65C151.46 165.69 151.569 165.71 151.689 165.71C151.852 165.71 151.994 165.672 152.114 165.595C152.237 165.518 152.332 165.408 152.399 165.265L152.684 165.47C152.6 165.647 152.47 165.79 152.294 165.9C152.117 166.007 151.907 166.06 151.664 166.06ZM151.664 163.695C151.554 163.695 151.454 163.715 151.364 163.755C151.274 163.792 151.195 163.845 151.129 163.915C151.065 163.985 151.015 164.068 150.979 164.165C150.942 164.258 150.924 164.362 150.924 164.475V164.51H152.349V164.455C152.349 164.225 152.285 164.042 152.159 163.905C152.035 163.765 151.87 163.695 151.664 163.695ZM155.088 165.58H155.068C154.911 165.9 154.659 166.06 154.313 166.06C154.153 166.06 154.008 166.028 153.878 165.965C153.748 165.902 153.636 165.812 153.543 165.695C153.453 165.578 153.383 165.437 153.333 165.27C153.286 165.103 153.263 164.917 153.263 164.71C153.263 164.503 153.286 164.317 153.333 164.15C153.383 163.983 153.453 163.842 153.543 163.725C153.636 163.608 153.748 163.518 153.878 163.455C154.008 163.392 154.153 163.36 154.313 163.36C154.493 163.36 154.646 163.4 154.773 163.48C154.903 163.557 155.001 163.677 155.068 163.84H155.088V162.3H155.488V166H155.088V165.58ZM154.423 165.7C154.513 165.7 154.598 165.688 154.678 165.665C154.761 165.642 154.833 165.608 154.893 165.565C154.953 165.518 154.999 165.463 155.033 165.4C155.069 165.333 155.088 165.258 155.088 165.175V164.215C155.088 164.145 155.069 164.08 155.033 164.02C154.999 163.957 154.953 163.903 154.893 163.86C154.833 163.817 154.761 163.783 154.678 163.76C154.598 163.733 154.513 163.72 154.423 163.72C154.196 163.72 154.018 163.792 153.888 163.935C153.758 164.075 153.693 164.26 153.693 164.49V164.93C153.693 165.16 153.758 165.347 153.888 165.49C154.018 165.63 154.196 165.7 154.423 165.7ZM157.52 162.3H157.92V163.84H157.94C158.006 163.677 158.103 163.557 158.23 163.48C158.36 163.4 158.515 163.36 158.695 163.36C158.855 163.36 159 163.392 159.13 163.455C159.26 163.518 159.37 163.608 159.46 163.725C159.553 163.842 159.623 163.983 159.67 164.15C159.72 164.317 159.745 164.503 159.745 164.71C159.745 164.917 159.72 165.103 159.67 165.27C159.623 165.437 159.553 165.578 159.46 165.695C159.37 165.812 159.26 165.902 159.13 165.965C159 166.028 158.855 166.06 158.695 166.06C158.345 166.06 158.093 165.9 157.94 165.58H157.92V166H157.52V162.3ZM158.585 165.7C158.811 165.7 158.99 165.63 159.12 165.49C159.25 165.347 159.315 165.16 159.315 164.93V164.49C159.315 164.26 159.25 164.075 159.12 163.935C158.99 163.792 158.811 163.72 158.585 163.72C158.495 163.72 158.408 163.733 158.325 163.76C158.245 163.783 158.175 163.817 158.115 163.86C158.055 163.903 158.006 163.957 157.97 164.02C157.936 164.08 157.92 164.145 157.92 164.215V165.175C157.92 165.258 157.936 165.333 157.97 165.4C158.006 165.463 158.055 165.518 158.115 165.565C158.175 165.608 158.245 165.642 158.325 165.665C158.408 165.688 158.495 165.7 158.585 165.7ZM161.986 163.42H162.381L161.226 166.6C161.196 166.677 161.166 166.74 161.136 166.79C161.106 166.843 161.069 166.885 161.026 166.915C160.982 166.945 160.927 166.967 160.861 166.98C160.797 166.993 160.719 167 160.626 167H160.421V166.65H160.826L161.021 166.1L160.056 163.42H160.456L161.076 165.175L161.196 165.595H161.221L161.361 165.175L161.986 163.42ZM135.465 173V169.51H137.545V169.88H135.885V171.05H137.4V171.42H135.885V173H135.465ZM138.12 173V170.42H138.52V170.895H138.545C138.592 170.772 138.675 170.662 138.795 170.565C138.915 170.468 139.08 170.42 139.29 170.42H139.445V170.82H139.21C138.994 170.82 138.824 170.862 138.7 170.945C138.58 171.025 138.52 171.127 138.52 171.25V173H138.12ZM140.902 173.06C140.725 173.06 140.565 173.028 140.422 172.965C140.282 172.902 140.16 172.812 140.057 172.695C139.957 172.575 139.879 172.433 139.822 172.27C139.769 172.103 139.742 171.917 139.742 171.71C139.742 171.507 139.769 171.322 139.822 171.155C139.879 170.988 139.957 170.847 140.057 170.73C140.16 170.61 140.282 170.518 140.422 170.455C140.565 170.392 140.725 170.36 140.902 170.36C141.075 170.36 141.23 170.392 141.367 170.455C141.504 170.518 141.62 170.607 141.717 170.72C141.814 170.83 141.887 170.962 141.937 171.115C141.99 171.268 142.017 171.437 142.017 171.62V171.81H140.162V171.93C140.162 172.04 140.179 172.143 140.212 172.24C140.249 172.333 140.299 172.415 140.362 172.485C140.429 172.555 140.509 172.61 140.602 172.65C140.699 172.69 140.807 172.71 140.927 172.71C141.09 172.71 141.232 172.672 141.352 172.595C141.475 172.518 141.57 172.408 141.637 172.265L141.922 172.47C141.839 172.647 141.709 172.79 141.532 172.9C141.355 173.007 141.145 173.06 140.902 173.06ZM140.902 170.695C140.792 170.695 140.692 170.715 140.602 170.755C140.512 170.792 140.434 170.845 140.367 170.915C140.304 170.985 140.254 171.068 140.217 171.165C140.18 171.258 140.162 171.362 140.162 171.475V171.51H141.587V171.455C141.587 171.225 141.524 171.042 141.397 170.905C141.274 170.765 141.109 170.695 140.902 170.695ZM143.646 173.06C143.469 173.06 143.309 173.028 143.166 172.965C143.026 172.902 142.904 172.812 142.801 172.695C142.701 172.575 142.623 172.433 142.566 172.27C142.513 172.103 142.486 171.917 142.486 171.71C142.486 171.507 142.513 171.322 142.566 171.155C142.623 170.988 142.701 170.847 142.801 170.73C142.904 170.61 143.026 170.518 143.166 170.455C143.309 170.392 143.469 170.36 143.646 170.36C143.819 170.36 143.974 170.392 144.111 170.455C144.248 170.518 144.364 170.607 144.461 170.72C144.558 170.83 144.631 170.962 144.681 171.115C144.734 171.268 144.761 171.437 144.761 171.62V171.81H142.906V171.93C142.906 172.04 142.923 172.143 142.956 172.24C142.993 172.333 143.043 172.415 143.106 172.485C143.173 172.555 143.253 172.61 143.346 172.65C143.443 172.69 143.551 172.71 143.671 172.71C143.834 172.71 143.976 172.672 144.096 172.595C144.219 172.518 144.314 172.408 144.381 172.265L144.666 172.47C144.583 172.647 144.453 172.79 144.276 172.9C144.099 173.007 143.889 173.06 143.646 173.06ZM143.646 170.695C143.536 170.695 143.436 170.715 143.346 170.755C143.256 170.792 143.178 170.845 143.111 170.915C143.048 170.985 142.998 171.068 142.961 171.165C142.924 171.258 142.906 171.362 142.906 171.475V171.51H144.331V171.455C144.331 171.225 144.268 171.042 144.141 170.905C144.018 170.765 143.853 170.695 143.646 170.695ZM145.42 170.42H145.82V170.84H145.84C145.907 170.677 146.003 170.557 146.13 170.48C146.26 170.4 146.415 170.36 146.595 170.36C146.755 170.36 146.9 170.392 147.03 170.455C147.16 170.518 147.27 170.608 147.36 170.725C147.453 170.842 147.523 170.983 147.57 171.15C147.62 171.317 147.645 171.503 147.645 171.71C147.645 171.917 147.62 172.103 147.57 172.27C147.523 172.437 147.453 172.578 147.36 172.695C147.27 172.812 147.16 172.902 147.03 172.965C146.9 173.028 146.755 173.06 146.595 173.06C146.245 173.06 145.993 172.9 145.84 172.58H145.82V174H145.42V170.42ZM146.485 172.7C146.712 172.7 146.89 172.63 147.02 172.49C147.15 172.347 147.215 172.16 147.215 171.93V171.49C147.215 171.26 147.15 171.075 147.02 170.935C146.89 170.792 146.712 170.72 146.485 170.72C146.395 170.72 146.308 170.733 146.225 170.76C146.145 170.783 146.075 170.817 146.015 170.86C145.955 170.903 145.907 170.957 145.87 171.02C145.837 171.08 145.82 171.145 145.82 171.215V172.175C145.82 172.258 145.837 172.333 145.87 172.4C145.907 172.463 145.955 172.518 146.015 172.565C146.075 172.608 146.145 172.642 146.225 172.665C146.308 172.688 146.395 172.7 146.485 172.7ZM148.521 169.815C148.434 169.815 148.371 169.795 148.331 169.755C148.294 169.712 148.276 169.657 148.276 169.59V169.525C148.276 169.458 148.294 169.405 148.331 169.365C148.371 169.322 148.434 169.3 148.521 169.3C148.607 169.3 148.669 169.322 148.706 169.365C148.746 169.405 148.766 169.458 148.766 169.525V169.59C148.766 169.657 148.746 169.712 148.706 169.755C148.669 169.795 148.607 169.815 148.521 169.815ZM148.321 170.42H148.721V173H148.321V170.42ZM149.571 169.3H149.971V171.645H149.991L150.386 171.205L151.116 170.42H151.601L150.646 171.44L151.696 173H151.211L150.356 171.685L149.971 172.08V173H149.571V169.3Z" fill="white"/>
<path d="M58.5306 29.8813C58.3311 29.804 50.6025 27.7847 51.0734 35.5641C51.5388 43.3489 59.2896 41.2744 59.2896 41.0482C59.2896 40.8331 58.5306 29.8813 58.5306 29.8813Z" fill="#F0BDB2"/>
<path d="M56.7242 38.2524C56.6909 38.2303 56.5912 38.3572 56.3696 38.4731C56.1535 38.589 55.7712 38.6828 55.3557 38.5559C54.5136 38.302 53.738 37.0384 53.6161 35.6369C53.5551 34.9306 53.6604 34.2463 53.882 33.6725C54.087 33.0876 54.4305 32.6682 54.846 32.5689C55.256 32.4475 55.5607 32.6793 55.6715 32.8945C55.7878 33.1041 55.7491 33.2642 55.7934 33.2752C55.8156 33.2917 55.9541 33.1372 55.871 32.8172C55.8266 32.6627 55.7269 32.4861 55.533 32.3482C55.3391 32.2102 55.0565 32.144 54.7684 32.1937C54.1701 32.2709 53.6604 32.8558 53.4166 33.4849C53.1452 34.1194 53.0067 34.8864 53.0731 35.681C53.2172 37.2481 54.1092 38.6662 55.2615 38.9256C55.8211 39.0359 56.2699 38.8428 56.497 38.6442C56.7242 38.44 56.7519 38.2634 56.7242 38.2524Z" fill="#D79B8E"/>
<path d="M78.0479 2.08008C82.0199 2.08008 86.0584 2.08008 91.0332 4.66768C94.1687 6.29527 96.1243 8.88287 97.7585 12.0056C99.0105 14.3946 99.7473 17.5284 99.6033 20.2209C99.4592 22.9133 99.4481 24.7947 98.3679 27.2664" fill="#263238"/>
<path d="M76.4586 2.69247C88.2086 1.87592 98.3575 10.8029 98.9724 22.5215C99.4821 32.2706 99.9364 42.8196 99.8256 48.1272C99.5929 59.5259 88.131 61.2031 88.131 61.2031C88.131 61.2031 88.3858 64.5852 88.6684 68.7728C89.239 77.2142 82.6909 84.4639 74.1984 84.7839C65.8721 85.0984 58.8697 78.6266 58.565 70.3342L56.8643 24.3974C56.4433 13.087 65.1131 3.48144 76.4586 2.69247Z" fill="#F0BDB2"/>
<path d="M88.1356 61.204C88.1356 61.204 81.1 61.5682 73.4551 56.6958C73.4551 56.6958 76.9175 64.9893 88.3461 64.0512L88.1356 61.204Z" fill="#D79B8E"/>
<path d="M94.5899 28.8609C94.612 29.7217 93.9029 30.4501 92.9998 30.4887C92.1023 30.5274 91.3488 29.8652 91.3267 29.0099C91.3045 28.1491 92.0137 27.4208 92.9167 27.3766C93.8143 27.338 94.5677 28.0001 94.5899 28.8609Z" fill="#263238"/>
<path d="M96.1743 26.5541C95.9693 26.7638 94.7393 25.8423 92.9775 25.8312C91.2213 25.7981 89.9249 26.6865 89.7365 26.4713C89.6423 26.3775 89.8528 25.9968 90.4179 25.5885C90.9775 25.1856 91.9194 24.7994 93.0163 24.8159C94.1133 24.8325 95.033 25.2408 95.5538 25.6547C96.0967 26.074 96.274 26.4603 96.1743 26.5541Z" fill="#263238"/>
<path d="M77.3448 28.8609C77.3669 29.7217 76.6578 30.4501 75.7547 30.4887C74.8572 30.5274 74.1037 29.8652 74.0816 29.0099C74.0594 28.1491 74.7686 27.4208 75.6716 27.3766C76.5691 27.338 77.3171 28.0001 77.3448 28.8609Z" fill="#263238"/>
<path d="M78.8849 26.7428C78.6799 26.9525 77.45 26.031 75.6882 26.0199C73.9319 25.9868 72.6355 26.8752 72.4416 26.66C72.3474 26.5662 72.5579 26.1855 73.123 25.7827C73.677 25.3798 74.6244 24.9936 75.7214 25.0046C76.8184 25.0212 77.7325 25.4295 78.2644 25.8434C78.8018 26.2682 78.9846 26.649 78.8849 26.7428Z" fill="#263238"/>
<path d="M85.1628 39.7842C85.1573 39.6849 86.2487 39.5029 88.0216 39.2932C88.4704 39.2491 88.897 39.1663 88.9745 38.8629C89.0853 38.5429 88.8969 38.0573 88.6864 37.5332C88.2709 36.4463 87.8388 35.3097 87.3845 34.118C85.5783 29.2518 84.2764 25.2573 84.4703 25.1855C84.6698 25.1138 86.293 28.998 88.0992 33.8642C88.5313 35.0615 88.9468 36.2091 89.3457 37.3015C89.5119 37.8091 89.8 38.3884 89.5673 39.056C89.4454 39.387 89.113 39.6298 88.8249 39.7015C88.5368 39.7842 88.282 39.7898 88.0604 39.8008C86.2764 39.8836 85.1684 39.8836 85.1628 39.7842Z" fill="#263238"/>
<path d="M79.976 40.9538C80.264 40.9372 80.253 42.8409 81.8763 44.2039C83.4996 45.5723 85.5328 45.3737 85.5439 45.6385C85.5716 45.7599 85.0896 46.0027 84.2309 46.0193C83.3887 46.0414 82.1588 45.7599 81.1671 44.9267C80.1754 44.0935 79.7543 42.9844 79.6989 42.2009C79.6325 41.4118 79.8485 40.9428 79.976 40.9538Z" fill="#263238"/>
<path d="M79.3939 19.8839C79.2166 20.3585 77.4604 20.1212 75.3994 20.3529C73.3273 20.5405 71.6597 21.131 71.3882 20.7006C71.2664 20.4964 71.56 20.0494 72.2359 19.5915C72.9063 19.139 73.9755 18.7086 75.2166 18.5817C76.4576 18.4548 77.5878 18.6589 78.3357 18.9734C79.0892 19.2825 79.4715 19.6577 79.3939 19.8839Z" fill="#263238"/>
<path d="M95.9296 20.3198C95.6193 20.7171 94.4116 20.2922 92.9545 20.2591C91.4974 20.1763 90.2619 20.5074 89.9794 20.0881C89.8575 19.8839 90.0514 19.4866 90.5944 19.1169C91.1262 18.7472 92.0182 18.4437 93.021 18.4823C94.0238 18.521 94.888 18.8907 95.3922 19.299C95.9019 19.7183 96.0681 20.1267 95.9296 20.3198Z" fill="#263238"/>
<path d="M56.997 27.9598C56.997 27.9598 57.4956 30.597 57.6285 31.7832C57.6784 32.2191 57.623 37.0467 58.7974 37.2895C59.8112 37.4991 61.8222 36.5777 62.7196 34.5805C63.6171 32.5832 65.3233 27.7887 65.135 25.6094C64.8857 22.6356 64.7416 19.6177 65.3399 16.6935C65.9382 13.7693 67.3398 10.9169 69.6998 9.07967C72.0597 7.24242 75.4612 6.5969 78.1369 7.93759C79.7878 8.76518 81.0232 10.2273 82.5632 11.2424C83.9482 12.1583 85.6378 12.71 87.2831 12.4673C88.9285 12.2245 90.4796 11.0824 90.9339 9.48795C91.4214 7.75001 90.5239 5.84103 89.1279 4.69344C87.7319 3.54033 85.9259 3.01067 84.1421 2.66308C79.2061 1.68653 73.9765 1.87963 69.2843 3.69481C64.5921 5.51 60.4317 8.99691 58.4263 13.5928C56.1162 18.9059 56.3876 22.1666 56.997 27.9598Z" fill="#263238"/>
<path d="M83.1608 28.9328C83.1165 28.9384 83.1663 28.2432 82.8616 27.057C82.5625 25.8928 81.7814 24.1825 80.0252 22.8583C79.1555 22.2128 78.0586 21.6611 76.7955 21.4459C75.538 21.2363 74.1253 21.2749 72.7792 21.788C72.1033 22.0252 71.4496 22.3783 70.8458 22.8252C70.2364 23.2666 69.6879 23.8073 69.2337 24.4418C68.2919 25.6887 67.7656 27.2887 67.749 28.9328C67.7656 30.5825 68.2919 32.1825 69.2337 33.4294C69.6879 34.0639 70.2419 34.6046 70.8458 35.046C71.4441 35.4929 72.0978 35.8515 72.7792 36.0832C74.1253 36.5963 75.5435 36.635 76.7955 36.4253C78.0586 36.2046 79.1555 35.6584 80.0252 35.0074C81.7814 33.6832 82.5625 31.9729 82.8616 30.8087C83.1663 29.6225 83.1165 28.9328 83.1608 28.9328C83.1663 28.9328 83.1663 28.977 83.1718 29.0597C83.1718 29.1591 83.1718 29.2804 83.1663 29.4294C83.1663 29.5949 83.1608 29.7935 83.1165 30.0308C83.0832 30.268 83.0555 30.5439 82.9724 30.8418C82.701 32.028 81.9365 33.7936 80.1526 35.1729C79.2663 35.846 78.1417 36.4253 76.8454 36.6625C75.5546 36.8943 74.0921 36.8612 72.6905 36.337C71.987 36.0943 71.3111 35.7301 70.6851 35.2722C70.0536 34.8198 69.483 34.257 69.0065 33.6005C68.0315 32.3094 67.4776 30.6487 67.4609 28.9384C67.4776 27.228 68.0315 25.5673 69.0065 24.2763C69.4774 23.6197 70.0536 23.057 70.6851 22.6045C71.3111 22.1411 71.987 21.777 72.6905 21.5397C74.0866 21.0156 75.5491 20.9825 76.8398 21.2142C78.1417 21.4514 79.2663 22.0252 80.1471 22.7039C81.9365 24.0832 82.6954 25.8487 82.9669 27.0349C83.05 27.3328 83.0832 27.6087 83.1109 27.8459C83.1497 28.0832 83.1608 28.2818 83.1608 28.4473C83.1608 28.5963 83.1663 28.7177 83.1663 28.817C83.1663 28.8942 83.1663 28.9328 83.1608 28.9328Z" fill="#263238"/>
<path d="M103.304 28.9328C103.259 28.9384 103.309 28.2432 103.005 27.057C102.705 25.8928 101.924 24.1825 100.168 22.8583C99.2984 22.2128 98.2015 21.6611 96.9384 21.4459C95.6809 21.2363 94.2682 21.2749 92.9221 21.788C92.2462 22.0252 91.5925 22.3783 90.9887 22.8252C90.3793 23.2666 89.8308 23.8073 89.3766 24.4418C88.4348 25.6887 87.9085 27.2887 87.8919 28.9328C87.9085 30.5825 88.4348 32.1825 89.3766 33.4294C89.8308 34.0639 90.3848 34.6046 90.9887 35.046C91.587 35.4929 92.2407 35.8515 92.9221 36.0832C94.2682 36.5963 95.6864 36.635 96.9384 36.4253C98.2015 36.2046 99.2984 35.6584 100.168 35.0074C101.924 33.6832 102.705 31.9729 103.005 30.8087C103.309 29.6225 103.259 28.9328 103.304 28.9328C103.309 28.9328 103.309 28.977 103.315 29.0597C103.315 29.1591 103.315 29.2804 103.309 29.4294C103.309 29.5949 103.304 29.7935 103.259 30.0308C103.226 30.268 103.198 30.5439 103.115 30.8418C102.844 32.028 102.079 33.7936 100.296 35.1729C99.4092 35.846 98.2846 36.4253 96.9883 36.6625C95.6975 36.8943 94.235 36.8612 92.839 36.337C92.1354 36.0943 91.4595 35.7301 90.8335 35.2722C90.202 34.8198 89.6314 34.257 89.155 33.6005C88.18 32.3094 87.626 30.6487 87.6094 28.9384C87.626 27.228 88.1744 25.5673 89.155 24.2763C89.6259 23.6197 90.202 23.057 90.8335 22.6045C91.4595 22.1411 92.1354 21.777 92.839 21.5397C94.235 21.0156 95.6975 20.9825 96.9883 21.2142C98.2901 21.4514 99.4147 22.0252 100.296 22.7039C102.085 24.0832 102.844 25.8487 103.115 27.0349C103.198 27.3328 103.232 27.6087 103.259 27.8459C103.298 28.0832 103.309 28.2818 103.309 28.4473C103.309 28.5963 103.315 28.7177 103.315 28.817C103.309 28.8942 103.309 28.9328 103.304 28.9328Z" fill="#263238"/>
<path d="M87.9354 28.1048C87.9077 28.1435 87.6528 28 87.2152 27.8565C86.7775 27.7131 86.1514 27.5862 85.4534 27.6303C84.7553 27.68 84.1459 27.8841 83.7359 28.0828C83.3204 28.2814 83.0877 28.458 83.0544 28.4249C83.0323 28.4028 83.2262 28.1655 83.6362 27.9062C84.0461 27.6468 84.6888 27.393 85.4312 27.3434C86.1791 27.2937 86.8495 27.4592 87.2872 27.6634C87.7304 27.8731 87.952 28.0828 87.9354 28.1048Z" fill="#263238"/>
<path d="M91.0558 8.87817C91.1666 8.28775 90.9727 7.95668 91.3051 7.71389C91.6874 7.43799 92.4076 8.16084 92.6736 8.45329C92.7567 8.5471 93.0282 8.18291 93.1334 8.1167C93.2165 8.06152 93.3439 7.46006 93.3329 7.36074C93.283 6.94689 92.6348 6.83653 92.3301 6.55512C92.0254 6.2737 91.6431 6.08057 91.2497 5.94814C90.9062 5.82675 90.4852 5.76053 90.2137 6.00884C90.0087 6.19645 89.9755 6.50545 89.981 6.78135C89.9866 7.05725 90.0253 7.33315 90.1361 7.58697C90.247 7.8408 90.4353 8.06152 90.6846 8.17739" fill="#263238"/>
<path d="M56.5763 21.9044C56.5763 21.9044 62.1885 23.9516 65.1083 25.1876L64.942 22.3293L56.7757 19.1123C56.7757 19.1123 56.5707 21.2367 56.5763 21.9044Z" fill="#EBEBEB"/>
<path d="M57.098 17.4622C57.1312 17.3905 58.9096 18.0692 61.0703 18.9797C63.231 19.8901 64.9596 20.6902 64.9319 20.762C64.8986 20.8337 63.1202 20.155 60.9595 19.2445C58.7988 18.3341 57.0703 17.534 57.098 17.4622Z" fill="#EBEBEB"/>
<path d="M58.7919 77.666L58.3598 64.1377C58.3598 64.1377 61.0577 76.5184 75.1898 76.3529C88.6958 76.1984 88.4465 65.4453 88.4465 65.4453L88.9285 70.8963V92.9158L80.1202 128.839L68.8688 130.262L56.4375 81.153L58.7919 77.666Z" fill="#268CB8"/>
<path d="M87.1894 73.3417C87.2004 73.3472 87.1395 73.4466 87.0287 73.6287C86.9068 73.8052 86.7572 74.0977 86.4913 74.4122C86.0038 75.0799 85.1784 75.9628 83.9763 76.8401C82.7797 77.7175 81.1731 78.5176 79.2785 79.0363C77.3839 79.5494 75.1957 79.7536 72.941 79.4722C70.6918 79.1687 68.6199 78.4845 66.8527 77.6457C65.08 76.8125 63.5897 75.8524 62.4042 74.975C61.2187 74.0977 60.3102 73.3141 59.7119 72.7513C59.4072 72.4754 59.1856 72.2437 59.0305 72.0947C58.8754 71.9402 58.8034 71.8574 58.8089 71.8519C58.8144 71.8464 58.9086 71.9126 59.0693 72.056C59.2576 72.2161 59.4958 72.4202 59.7894 72.6741C60.4154 73.2093 61.335 73.9653 62.5261 74.815C63.7227 75.6648 65.2074 76.5973 66.969 77.4085C68.7252 78.2251 70.7693 78.8928 72.9853 79.1908C75.2012 79.4667 77.3506 79.2735 79.2176 78.7824C81.0845 78.2858 82.6744 77.5188 83.8655 76.6746C85.0621 75.8358 85.9041 74.9861 86.4082 74.346C86.9179 73.7059 87.1616 73.3252 87.1894 73.3417Z" fill="#263238"/>
<path d="M77.3778 188.795L77.1728 124.954L58.9745 78.3666L58.3651 64.3472L47.2689 72.7003C47.2689 72.7003 31.1203 128.055 30.871 126.135C30.6217 124.215 30.8655 188.8 30.8655 188.8H77.3778V188.795Z" fill="#EBEBEB"/>
<path d="M76.939 188.618C76.8614 188.618 76.7949 174.234 76.7949 156.491C76.7949 138.742 76.8614 124.364 76.939 124.364C77.0165 124.364 77.083 138.747 77.083 156.491C77.0886 174.234 77.0221 188.618 76.939 188.618Z" fill="#263238"/>
<path d="M47.4346 81.8154L49.6837 83.5147L48.0993 93.8431L74.6738 121.562L50.5369 89.9975L52.5921 81.8154H47.4346Z" fill="#E0E0E0"/>
<path d="M78.3758 156.094L37.5972 144.188L36.2455 113.341L47.4359 72.7007C47.4359 72.7007 20.7783 85.9476 18.9613 94.378C17.1442 102.803 12.7733 123.294 12.308 138.108C11.8925 151.349 11.8315 160.205 14.8674 164.431C23.5649 176.536 80.8687 178.698 103.759 164.414" fill="#EBEBEB"/>
<path d="M75.183 122.229C75.1775 122.235 75.1331 122.179 75.05 122.08C74.9559 121.964 74.8395 121.815 74.6844 121.628C74.3576 121.208 73.8922 120.618 73.2995 119.862C72.0973 118.306 70.3744 116.077 68.2472 113.33C63.9926 107.785 58.137 100.155 51.6665 91.7186C51.2455 91.1724 50.83 90.6262 50.42 90.0855L50.3757 90.0304L50.3923 89.9641C51.107 87.1393 51.7939 84.3972 52.4531 81.782L52.5861 81.9531C50.8023 81.9531 49.0794 81.9475 47.423 81.9475H47.29V81.8151C47.2956 78.4717 47.3067 75.4096 47.3122 72.6951V72.6399L47.3565 72.6068C50.7192 70.0634 53.4559 67.9889 55.3726 66.5433C56.3144 65.8371 57.0567 65.2854 57.5719 64.8992C57.8157 64.7226 58.0096 64.5792 58.1481 64.4744C58.281 64.3806 58.3475 64.3364 58.353 64.3364C58.3586 64.3419 58.2921 64.3971 58.1702 64.4964C58.0317 64.6068 57.8489 64.7557 57.6107 64.9433C57.101 65.3406 56.3753 65.9088 55.4446 66.6316C53.5445 68.0992 50.83 70.1958 47.4895 72.7723L47.5338 72.6841C47.5393 75.3986 47.5449 78.4606 47.556 81.8041L47.423 81.6717C49.0794 81.6717 50.8023 81.6662 52.5861 81.6662H52.7634L52.7191 81.8372C52.0654 84.4524 51.3784 87.1945 50.6693 90.0193L50.6416 89.8979C51.0516 90.4386 51.4726 90.9793 51.8881 91.5311C58.3309 99.9835 64.1643 107.636 68.3967 113.192C70.4908 115.962 72.1915 118.207 73.377 119.779C73.9532 120.552 74.4019 121.153 74.7177 121.578C74.8617 121.777 74.9725 121.931 75.0611 122.053C75.1498 122.174 75.1885 122.229 75.183 122.229Z" fill="#263238"/>
<path d="M93.3654 70.2956C90.1135 64.6294 88.4239 65.2197 88.4239 65.2197L88.5956 67.239L88.6011 71.4818L87.0611 89.6833L77.1836 129.237L77.3886 188.79H114.732L119.38 116.089L118.959 84.7729L93.3654 70.2956Z" fill="#EBEBEB"/>
<path d="M118.948 84.7778C118.948 84.7778 128.615 91.8841 129.451 103.316C130.132 112.601 131.689 138.031 131.972 143.564C132.409 152.188 125.673 172.37 108.123 166.654C97.5972 163.222 58.7188 150.064 58.7188 150.064L61.3058 133.617L107.458 136.353L108.372 98.0193L118.948 84.7778Z" fill="#EBEBEB"/>
<path d="M60.7798 135.515C60.7798 135.515 47.7169 134.108 44.6922 134.837C41.7837 135.537 37.6455 139.079 37.6455 139.079L37.7064 144.222L58.719 150.07L60.7798 135.515Z" fill="#F0BDB2"/>
<path d="M77.1786 123.294C77.173 123.294 77.1952 123.234 77.234 123.118C77.2838 122.991 77.3503 122.82 77.4279 122.61C77.6107 122.147 77.8766 121.496 78.209 120.668C78.907 118.969 79.9042 116.536 81.134 113.54C82.3805 110.527 83.8596 106.952 85.5049 102.98C85.9204 101.992 86.3303 100.96 86.84 99.9508C87.3331 98.9301 87.9147 97.937 88.513 96.9273C89.7429 94.9246 91.1334 92.9328 92.6624 90.9687C93.4158 90.0032 94.1747 89.0597 94.9614 88.1549L94.9337 88.3038C94.3797 86.9025 93.8368 85.5231 93.305 84.1824L93.2496 84.0445L93.3881 83.9949C95.7702 83.1893 98.0526 82.4169 100.197 81.6886L100.124 81.8762C96.9668 76.6238 94.2966 72.1879 92.4075 69.0431C91.4713 67.4872 90.6736 66.2403 89.8315 65.7327C89.416 65.4789 89.0449 65.3741 88.8011 65.3189C88.5518 65.2582 88.4244 65.2361 88.4244 65.2251C88.4244 65.2251 88.5574 65.2306 88.8122 65.2748C89.0615 65.3244 89.4437 65.4072 89.8814 65.661C90.319 65.9092 90.7622 66.3561 91.1888 66.9244C91.6209 67.4982 92.0807 68.1768 92.546 68.9603C94.4572 72.0941 97.1607 76.5134 100.357 81.7438L100.44 81.8817L100.285 81.9369C98.1412 82.6707 95.8644 83.4486 93.4822 84.2597L93.5653 84.0776C94.0972 85.4183 94.6401 86.7921 95.1996 88.199L95.2328 88.2818L95.1774 88.348C94.4018 89.2418 93.6429 90.1852 92.8895 91.1507C91.3716 93.1094 89.9811 95.0956 88.7568 97.0818C88.1585 98.086 87.5823 99.0736 87.0893 100.083C86.5796 101.082 86.1697 102.097 85.7487 103.09C84.0867 107.052 82.5854 110.621 81.3224 113.628C80.0593 116.613 79.0344 119.03 78.3142 120.723C77.9597 121.545 77.6827 122.191 77.4833 122.649C77.3891 122.858 77.3171 123.018 77.2617 123.145C77.2118 123.239 77.1786 123.3 77.1786 123.294Z" fill="#263238"/>
<path d="M124.255 163.46C124.261 163.465 124.206 163.521 124.095 163.631C123.973 163.747 123.807 163.907 123.596 164.111C123.153 164.525 122.455 165.093 121.474 165.711C120.483 166.307 119.192 166.925 117.591 167.333C115.996 167.747 114.095 167.901 112.029 167.686C110.999 167.57 109.929 167.344 108.844 167.013C107.758 166.671 106.678 166.246 105.531 165.843C103.248 165.021 100.805 164.161 98.2294 163.261C93.0773 161.463 87.399 159.543 81.416 157.59C69.45 153.672 58.5366 150.373 50.6258 148.023C46.6759 146.858 43.4794 145.915 41.2524 145.258C40.1555 144.933 39.3024 144.679 38.7041 144.503C38.4215 144.414 38.2055 144.348 38.0448 144.298C37.8953 144.249 37.8232 144.227 37.8232 144.221C37.8232 144.216 37.9008 144.232 38.0559 144.271C38.2221 144.315 38.4382 144.37 38.7262 144.447C39.3245 144.613 40.1887 144.85 41.2912 145.148C43.5126 145.766 46.7257 146.676 50.6922 147.824C58.6197 150.125 69.5442 153.396 81.5157 157.314C87.4987 159.267 93.1771 161.198 98.3235 163.013C100.894 163.918 103.337 164.784 105.619 165.623C106.761 166.026 107.858 166.461 108.921 166.803C109.99 167.134 111.043 167.366 112.062 167.482C114.101 167.708 115.979 167.57 117.563 167.179C119.148 166.787 120.438 166.197 121.43 165.617C122.411 165.016 123.114 164.464 123.568 164.067C123.785 163.874 123.956 163.719 124.084 163.609C124.189 163.51 124.25 163.454 124.255 163.46Z" fill="#263238"/>
<path d="M37.7071 144.31C37.6961 144.37 36.9758 144.21 35.8013 144.26C35.2196 144.287 34.527 144.381 33.7846 144.591C33.0478 144.812 32.2666 145.148 31.5131 145.623C30.0062 146.583 28.9757 147.874 28.3552 148.856C27.7347 149.85 27.4688 150.534 27.4189 150.512C27.4023 150.506 27.4577 150.33 27.574 150.021C27.6848 149.706 27.8898 149.27 28.1835 148.751C28.7707 147.725 29.8068 146.373 31.3636 145.38C32.1392 144.889 32.9536 144.552 33.7182 144.337C34.4883 144.133 35.203 144.056 35.8013 144.056C36.3996 144.061 36.8816 144.105 37.2085 144.183C37.5354 144.243 37.7127 144.293 37.7071 144.31Z" fill="#263238"/>
<path d="M24.8593 140.282C24.8482 140.277 24.8704 140.227 24.9092 140.139C24.9535 140.051 25.031 139.918 25.164 139.78C25.4189 139.488 25.9341 139.19 26.6156 139.063C27.2915 138.919 28.1225 138.952 29.0089 139.068C29.9009 139.184 30.8705 139.405 31.8511 139.758C33.8179 140.448 35.3913 141.551 36.3553 142.506C36.8373 142.986 37.1808 143.416 37.4024 143.725C37.6129 144.04 37.7237 144.217 37.7071 144.228C37.6628 144.261 37.203 143.554 36.2168 142.655C35.2362 141.756 33.6794 140.707 31.7514 140.034C30.7929 139.692 29.8455 139.466 28.9702 139.339C28.0948 139.212 27.3025 139.157 26.6488 139.272C25.995 139.372 25.5075 139.62 25.2416 139.868C24.9756 140.1 24.887 140.293 24.8593 140.282Z" fill="#263238"/>
<path d="M40.0826 104.85C40.0604 104.85 39.9939 104.552 39.8942 104.011C39.8111 103.752 39.6892 103.437 39.5674 103.068C39.3901 102.72 39.2183 102.312 38.9635 101.887C38.4649 101.037 37.7614 100.094 36.8861 99.1339C35.9831 98.196 34.9305 97.2139 33.7007 96.3422C31.2521 94.5877 28.6705 93.5559 26.7372 93.1587C25.7677 92.9876 24.9755 92.8608 24.416 92.8663C23.862 92.8387 23.5573 92.8166 23.5518 92.7945C23.5518 92.7725 23.8564 92.7614 24.416 92.7504C24.9755 92.7118 25.7843 92.8056 26.7704 92.9545C28.737 93.3077 31.3795 94.3228 33.8614 96.1049C35.1078 96.9877 36.1715 97.9863 37.0744 98.9518C37.9553 99.9394 38.6533 100.91 39.1353 101.782C39.379 102.218 39.5452 102.643 39.7114 103.001C39.8277 103.382 39.933 103.708 39.9995 103.978C40.077 104.546 40.1047 104.85 40.0826 104.85Z" fill="#263238"/>
<path d="M117.502 152.022C117.497 152.022 117.491 151.956 117.491 151.824C117.486 151.68 117.486 151.487 117.48 151.244C117.464 150.737 117.447 149.992 117.369 149.032C117.209 147.123 116.882 144.326 115.73 141.082C115.441 140.276 115.12 139.426 114.611 138.654C114.112 137.871 113.37 137.22 112.45 136.828C110.594 136.033 108.362 136.138 106.09 136.011C101.52 135.818 96.4953 135.608 91.2214 135.388C78.9341 134.858 68.0041 134.395 61.1347 134.031L61.2289 133.959C60.8134 136.469 60.4866 138.466 60.2594 139.846C60.1431 140.513 60.0544 141.037 59.988 141.407C59.9547 141.573 59.9326 141.705 59.9104 141.81C59.8938 141.898 59.8827 141.942 59.8772 141.942C59.8716 141.942 59.8772 141.893 59.8883 141.804C59.8993 141.7 59.916 141.567 59.9381 141.402C59.9935 141.032 60.0655 140.508 60.1597 139.835C60.3702 138.45 60.6694 136.453 61.0516 133.931L61.0627 133.854L61.1403 133.86C68.0373 134.146 78.9508 134.599 91.227 135.106C96.5009 135.333 101.525 135.553 106.096 135.752C107.237 135.807 108.351 135.835 109.442 135.923C110.528 136.017 111.591 136.193 112.544 136.618C113.497 137.026 114.289 137.727 114.793 138.538C115.314 139.344 115.635 140.204 115.918 141.021C117.054 144.298 117.353 147.112 117.475 149.032C117.53 149.998 117.536 150.748 117.53 151.255C117.524 151.498 117.519 151.686 117.513 151.835C117.513 151.951 117.508 152.022 117.502 152.022Z" fill="#263238"/>
<path d="M108.699 116.039C108.776 116.039 108.843 120.491 108.843 125.981C108.843 131.47 108.776 135.923 108.699 135.923C108.621 135.923 108.555 131.47 108.555 125.981C108.555 120.491 108.621 116.039 108.699 116.039Z" fill="#263238"/>
<path d="M19.2821 93.3799C19.2821 93.3799 19.2488 93.5068 19.1657 93.744C19.0937 93.9868 18.9497 94.3344 18.8334 94.8199C18.5619 95.7744 18.224 97.2034 17.8417 99.0627C17.0717 102.781 16.1188 108.221 15.0552 115.03C14.5289 118.434 13.9639 122.186 13.4099 126.235C13.1273 128.26 12.9556 130.368 12.806 132.552C12.662 134.737 12.5457 136.988 12.4626 139.311C12.2964 143.951 12.1967 148.851 12.3296 153.954C12.3684 155.228 12.4183 156.52 12.5235 157.816C12.5567 158.467 12.662 159.107 12.7451 159.753C12.8836 160.387 12.9999 161.038 13.216 161.656C13.6149 162.909 14.2187 164.111 15.0497 165.149C15.8806 166.18 16.9664 167.074 18.2018 167.565L18.2184 167.571L18.224 167.576C20.7778 168.889 23.581 169.844 26.4395 170.699C29.3036 171.554 32.2619 172.244 35.2644 172.856C41.9898 174.224 48.6542 175.03 55.097 175.262C58.3211 175.361 61.4788 175.24 64.5645 175.013C67.6502 174.804 70.6583 174.478 73.5667 174.048C79.389 173.209 84.8181 171.924 89.7208 170.307C94.6291 168.696 98.9944 166.743 102.784 164.724L102.8 164.9C95.1941 162.219 89.0893 160.067 84.879 158.583C82.785 157.838 81.1618 157.259 80.0538 156.867C79.5109 156.668 79.0954 156.52 78.8074 156.415C78.5248 156.31 78.3863 156.255 78.3863 156.255C78.3863 156.255 78.5359 156.299 78.8184 156.393C79.1065 156.492 79.5275 156.63 80.076 156.817C81.1895 157.198 82.8182 157.761 84.9178 158.484C89.1336 159.951 95.2495 162.07 102.867 164.718L103.077 164.79L102.878 164.895C99.0831 166.925 94.7122 168.9 89.7984 170.528C84.8845 172.155 79.4444 173.458 73.6055 174.307C70.6915 174.743 67.6779 175.069 64.5867 175.284C61.501 175.51 58.3211 175.631 55.0914 175.538C48.632 175.306 41.951 174.506 35.209 173.132C32.1954 172.514 29.2316 171.824 26.3564 170.964C23.4868 170.103 20.6781 169.149 18.091 167.813L18.1132 167.824C16.7836 167.295 15.6978 166.379 14.8336 165.314C13.9749 164.244 13.36 163.008 12.9501 161.728C12.7285 161.093 12.6066 160.437 12.4681 159.786C12.385 159.129 12.2798 158.473 12.2465 157.822C12.1413 156.52 12.0969 155.228 12.0582 153.948C11.9307 148.834 12.036 143.929 12.2133 139.289C12.3019 136.966 12.4238 134.71 12.5734 132.525C12.7229 130.34 12.9058 128.221 13.1938 126.197C13.7589 122.147 14.335 118.401 14.8779 114.997C15.9693 108.188 16.9498 102.754 17.7476 99.0406C18.1464 97.1813 18.501 95.7578 18.789 94.8033C18.9165 94.3233 19.066 93.9702 19.1491 93.733C19.2322 93.5013 19.2821 93.3799 19.2821 93.3799Z" fill="#263238"/>
<path d="M37.6455 140.497C44.4655 132.977 44.1664 119.608 40.2494 110.119C39.8893 120.397 38.6705 129.512 37.7397 139.498" fill="#E0E0E0"/>
<path d="M40.2657 112.044C40.2767 112.044 40.2767 112.16 40.2657 112.375C40.249 112.623 40.2269 112.932 40.2047 113.313C40.1382 114.168 40.0441 115.332 39.9333 116.761C39.6895 119.707 39.3571 123.707 38.9914 128.132C38.6424 132.557 38.3266 136.563 38.0939 139.509C37.9886 140.938 37.9 142.102 37.8335 142.957C37.8003 143.338 37.7726 143.647 37.7504 143.895C37.7282 144.11 37.7116 144.221 37.7005 144.221C37.6895 144.221 37.6895 144.105 37.6895 143.89C37.695 143.641 37.7061 143.332 37.7172 142.952C37.7449 142.135 37.8058 140.954 37.8889 139.498C38.0551 136.579 38.3377 132.557 38.6978 128.116C39.0634 123.674 39.4346 119.658 39.7227 116.75C39.8723 115.327 39.9942 114.163 40.0884 113.313C40.1327 112.932 40.1715 112.623 40.2047 112.38C40.238 112.154 40.2601 112.044 40.2657 112.044Z" fill="#263238"/>
<path d="M57.0796 98.4609C57.1572 98.4609 57.2236 101.071 57.2236 104.293C57.2236 107.515 57.1572 110.124 57.0796 110.124C57.002 110.124 56.9355 107.515 56.9355 104.293C56.9355 101.071 56.9965 98.4609 57.0796 98.4609Z" fill="#263238"/>
<path d="M52.6377 117.833C52.7374 119.024 53.2527 120.095 53.8953 120.922C54.538 121.75 55.84 122.561 56.8871 122.506C56.8871 122.506 59.5021 122.726 60.9148 120.492C62.1891 118.467 62.5049 114.257 61.4799 111.769C60.7763 110.059 59.1973 108.464 57.3358 108.426C54.8981 108.37 53.369 110.125 52.8482 111.896" fill="#E0E0E0"/>
<path d="M52.8525 111.902C52.8525 111.902 52.9079 111.438 53.3013 110.71C53.5007 110.351 53.7888 109.926 54.2154 109.518C54.6365 109.11 55.2182 108.729 55.9384 108.508C56.2985 108.404 56.6863 108.332 57.0963 108.326C57.5063 108.304 57.944 108.354 58.365 108.492C59.2127 108.762 59.9994 109.347 60.6255 110.108C61.257 110.864 61.728 111.824 61.9551 112.867C62.1933 113.91 62.2654 115.013 62.2044 116.139C62.0936 117.866 61.7501 119.587 60.7917 120.9C60.3041 121.546 59.6393 122.009 58.9523 122.279C58.2598 122.555 57.5506 122.66 56.8692 122.627H56.8858C56.3262 122.649 55.8276 122.467 55.3955 122.257C54.9633 122.037 54.5866 121.772 54.2708 121.479C53.6447 120.878 53.2957 120.216 53.0464 119.664C52.8082 119.107 52.7084 118.644 52.6586 118.324C52.6364 118.164 52.6253 118.042 52.6253 117.959C52.6198 117.877 52.6253 117.833 52.6309 117.833C52.6752 117.822 52.6697 118.528 53.1738 119.609C53.4342 120.133 53.7943 120.784 54.4038 121.336C54.7085 121.612 55.0741 121.86 55.4897 122.064C55.9052 122.257 56.3816 122.417 56.8747 122.39H56.8802H56.8913C58.1379 122.434 59.6559 121.954 60.5756 120.729C61.4676 119.499 61.8111 117.811 61.9219 116.117C62.0382 113.932 61.6726 111.736 60.426 110.274C59.8332 109.54 59.0853 108.983 58.293 108.718C57.8941 108.586 57.4952 108.536 57.1074 108.547C56.714 108.547 56.3428 108.613 55.9994 108.707C55.3124 108.9 54.7473 109.253 54.3262 109.639C53.8996 110.02 53.606 110.428 53.401 110.77C52.9799 111.46 52.8802 111.913 52.8525 111.902Z" fill="#263238"/>
<path d="M51.3398 117.943C51.4396 119.135 51.9548 120.205 52.5975 121.033C53.2401 121.86 54.5421 122.671 55.5892 122.616C55.5892 122.616 58.2042 122.837 59.617 120.602C60.8912 118.577 61.207 114.368 60.1821 111.879C59.4785 110.169 57.8995 108.575 56.038 108.536C53.6003 108.481 52.0712 110.235 51.5504 112.006" fill="#E0E0E0"/>
<path d="M51.5498 112.006C51.5498 112.006 51.6052 111.543 51.9985 110.815C52.198 110.456 52.4861 110.031 52.9127 109.623C53.3337 109.215 53.9154 108.834 54.6357 108.613C54.9958 108.509 55.3836 108.437 55.7936 108.431C56.2036 108.409 56.6412 108.459 57.0623 108.597C57.91 108.867 58.6967 109.452 59.3227 110.213C59.9543 110.969 60.4252 111.929 60.6524 112.972C60.8906 114.015 60.9626 115.118 60.9017 116.244C60.7909 117.971 60.4474 119.692 59.4889 121.005C59.0014 121.651 58.3366 122.114 57.6496 122.384C56.957 122.66 56.2479 122.765 55.5664 122.732H55.5831C55.0235 122.754 54.5249 122.572 54.0927 122.362C53.6606 122.142 53.2839 121.877 52.9681 121.584C52.342 120.989 51.993 120.321 51.7437 119.769C51.5054 119.212 51.4057 118.749 51.3559 118.429C51.3337 118.269 51.3226 118.147 51.3226 118.064C51.3171 117.982 51.3226 117.938 51.3281 117.938C51.3725 117.927 51.3669 118.633 51.8711 119.714C52.1315 120.238 52.4916 120.889 53.101 121.441C53.4057 121.717 53.7714 121.965 54.1869 122.169C54.6024 122.362 55.0789 122.522 55.572 122.495H55.5775H55.5886C56.8352 122.539 58.3532 122.059 59.2729 120.834C60.1648 119.604 60.5083 117.915 60.6191 116.222C60.7355 114.037 60.3698 111.841 59.1233 110.373C58.5305 109.64 57.7825 109.082 56.9903 108.818C56.5969 108.685 56.1925 108.635 55.8047 108.646C55.4113 108.646 55.0401 108.713 54.6966 108.806C54.0096 109 53.4445 109.353 53.0235 109.739C52.5969 110.12 52.3032 110.528 52.0982 110.87C51.6827 111.571 51.583 112.018 51.5498 112.006Z" fill="#263238"/>
<path d="M53.6888 111.389C52.4755 111.147 51.229 111.98 50.7137 113.095C50.1985 114.215 50.3148 115.533 50.7193 116.698C50.9243 117.288 51.2124 117.862 51.6445 118.32C52.0766 118.778 52.6694 119.104 53.2955 119.12C54.2152 119.148 55.0462 118.519 55.5836 117.774C56.4479 116.571 56.7415 114.976 56.3648 113.541C56.1099 112.587 55.4063 111.605 54.4146 111.577" fill="#E0E0E0"/>
<path d="M54.4149 111.576C54.4149 111.57 54.4925 111.559 54.6366 111.57C54.7806 111.587 54.9967 111.636 55.2349 111.774C55.7224 112.045 56.2765 112.707 56.5036 113.672C56.7363 114.621 56.7141 115.857 56.1601 117.049C55.8831 117.64 55.4898 118.225 54.9191 118.672C54.3651 119.119 53.5562 119.406 52.7806 119.179C52.016 118.964 51.4343 118.401 51.0742 117.789C50.7085 117.171 50.498 116.52 50.365 115.885C50.0991 114.616 50.3152 113.358 50.9191 112.552C51.5119 111.741 52.3097 111.399 52.8526 111.327C53.1241 111.283 53.3401 111.305 53.4842 111.327C53.6282 111.355 53.7003 111.377 53.6947 111.388C53.6892 111.421 53.39 111.333 52.8692 111.438C52.3595 111.537 51.6171 111.89 51.0853 112.668C50.5423 113.43 50.3595 114.616 50.6254 115.83C50.7584 116.437 50.9745 117.071 51.318 117.645C51.6614 118.214 52.1878 118.716 52.8637 118.903C53.534 119.097 54.2321 118.859 54.7529 118.451C55.2792 118.043 55.6615 117.491 55.9274 116.939C56.4648 115.813 56.5147 114.632 56.3097 113.717C56.1213 112.795 55.6227 112.144 55.185 111.868C54.7307 111.581 54.4039 111.609 54.4149 111.576Z" fill="#263238"/>
<path d="M56.4868 120.458C56.4424 120.469 56.3815 120.287 56.1931 120.061C56.0103 119.84 55.6723 119.592 55.2457 119.46C54.8136 119.327 54.3925 119.305 54.0823 119.278C53.772 119.255 53.5781 119.228 53.5781 119.189C53.5781 119.151 53.7665 119.107 54.0823 119.073C54.3981 119.046 54.8468 119.035 55.3344 119.184C55.8219 119.333 56.1931 119.653 56.3593 119.945C56.5311 120.232 56.52 120.453 56.4868 120.458Z" fill="#263238"/>
<path d="M56.9196 110.637C56.9473 110.66 56.8365 110.836 56.5761 111.04C56.3213 111.244 55.9058 111.46 55.4071 111.548C54.9085 111.636 54.4431 111.581 54.1329 111.476C53.8171 111.377 53.6564 111.25 53.673 111.222C53.7007 111.14 54.4376 111.438 55.3573 111.267C56.277 111.107 56.8642 110.571 56.9196 110.637Z" fill="#263238"/>
<path d="M94.985 71.1181C94.9905 71.1071 95.0514 71.1347 95.1678 71.1843C95.2841 71.2395 95.4503 71.3168 95.6609 71.4381C96.0819 71.6754 96.6692 72.0506 97.3229 72.6188C98.6304 73.7278 100.16 75.692 100.891 78.2354C101.655 80.7347 102.071 83.0796 102.248 84.7789C102.342 85.6286 102.398 86.3182 102.425 86.7927C102.453 87.2672 102.459 87.532 102.442 87.5375C102.42 87.5375 102.381 87.2782 102.315 86.8037C102.243 86.2741 102.154 85.6065 102.043 84.801C101.811 83.1127 101.373 80.8009 100.608 78.3127C99.8936 75.8244 98.4365 73.8933 97.1844 72.7623C95.9323 71.6202 94.9572 71.1678 94.985 71.1181Z" fill="#263238"/>
<path d="M88.0855 131.845C89.6922 131.785 90.972 130.19 92.5787 130.273C93.7698 130.333 94.7837 131.498 94.684 132.678C94.5842 133.859 93.3875 134.836 92.2019 134.698C90.5177 134.505 89.5315 132.535 87.875 132.16" fill="#263238"/>
<path d="M101.703 133.208C101.221 133.208 100.722 133.164 100.202 133.087L100.29 132.541C102.274 132.861 103.941 132.535 105.243 131.575C106.883 130.378 107.941 128.226 108.384 125.192L108.401 125.076C108.583 123.873 108.833 100.276 108.833 95.7959C108.833 88.8 102.667 87.84 102.401 87.8069C102.152 87.7627 96.5453 86.8303 93.5705 94.4717C90.4571 102.477 85.4768 117.898 85.1444 119.708C85.1056 119.928 85.0447 120.204 84.9727 120.519C84.4575 122.836 83.3772 127.647 86.6014 130.422C90.1967 133.512 93.0331 132.32 93.1494 132.265L93.3766 132.767C93.2436 132.828 90.1136 134.174 86.2357 130.836C82.7623 127.846 83.8869 122.814 84.4242 120.392C84.4907 120.083 84.5516 119.818 84.5904 119.597C84.9228 117.777 89.9197 102.284 93.0442 94.2621C96.1908 86.1737 102.418 87.2386 102.478 87.2496C102.534 87.2551 109.376 88.2979 109.376 95.7848C109.376 99.4759 109.132 123.873 108.938 125.148L108.921 125.264C108.456 128.447 107.326 130.72 105.559 132.011C104.489 132.811 103.193 133.208 101.703 133.208Z" fill="#263238"/>
<path d="M109.11 100.316C109.038 100.343 108.95 99.1404 107.958 97.5623C107.465 96.7843 106.734 95.94 105.77 95.2006C104.8 94.4667 103.581 93.8432 102.213 93.5287C99.4432 92.8941 96.8173 93.5838 95.1997 94.4391C93.5488 95.2944 92.8065 96.2325 92.7622 96.1773C92.7566 96.1718 92.801 96.1111 92.8896 96.0062C92.9838 95.9069 93.1057 95.7414 93.3051 95.5648C93.6763 95.1951 94.2801 94.715 95.1055 94.257C95.931 93.7935 96.9946 93.3797 98.23 93.159C99.4598 92.9327 100.867 92.9162 102.285 93.2417C103.703 93.5673 104.95 94.2184 105.941 94.9854C106.927 95.7579 107.659 96.6408 108.141 97.4519C108.623 98.2631 108.883 98.9914 108.994 99.5046C109.066 99.7584 109.082 99.9626 109.105 100.101C109.116 100.239 109.116 100.316 109.11 100.316Z" fill="#263238"/>
<path d="M123.215 144.42C123.154 144.431 123.06 143.471 122.456 142.064C121.858 140.679 120.655 138.836 118.7 137.573C117.73 136.944 116.639 136.652 115.653 136.475C114.655 136.31 113.736 136.249 112.971 136.199C112.245 136.15 111.636 136.105 111.148 136.072C110.716 136.034 110.478 136.001 110.483 135.984C110.483 135.962 110.722 135.956 111.154 135.962C111.647 135.973 112.256 135.984 112.982 135.995C113.752 136.023 114.677 136.061 115.697 136.216C116.711 136.381 117.841 136.674 118.86 137.33C120.888 138.638 122.09 140.552 122.65 141.987C122.932 142.71 123.088 143.322 123.154 143.752C123.221 144.177 123.232 144.42 123.215 144.42Z" fill="#263238"/>
<path d="M95.2705 135.212C95.2705 135.212 100.716 126.996 102.112 125.915C103.503 124.839 115.397 119.493 116.787 120.354C118.178 121.214 117.325 123.079 117.325 123.079C117.325 123.079 122.36 121.325 122.892 122.014C123.429 122.704 123.535 123.879 122.892 124.839C122.892 124.839 125.679 124.414 125.679 125.264C125.679 126.119 125.357 127.184 124.072 128.144C122.787 129.104 114.427 134.643 113.757 136.177L111.048 136.012L95.2705 135.212Z" fill="#F0BDB2"/>
<path d="M110.949 132.863C110.933 132.852 111.016 132.664 111.199 132.344C111.381 132.024 111.675 131.572 112.096 131.058C112.922 130.021 114.307 128.78 116.046 127.748C117.786 126.716 119.492 126.032 120.722 125.563C121.337 125.331 121.841 125.154 122.191 125.033C122.54 124.917 122.739 124.862 122.745 124.878C122.75 124.895 122.567 124.989 122.229 125.138C121.83 125.309 121.354 125.513 120.794 125.75C119.587 126.269 117.908 126.975 116.19 127.996C114.473 129.017 113.099 130.209 112.246 131.196C111.387 132.173 110.994 132.89 110.949 132.863Z" fill="#D79B8E"/>
<path d="M104.035 132.729C104.018 132.718 104.113 132.503 104.301 132.122C104.489 131.742 104.766 131.196 105.138 130.534C105.514 129.877 105.991 129.099 106.639 128.321C106.971 127.935 107.309 127.538 107.78 127.196C108.24 126.887 108.722 126.6 109.226 126.302C111.232 125.138 113.127 124.211 114.545 123.659C115.254 123.378 115.847 123.201 116.257 123.091C116.672 122.997 116.905 122.953 116.911 122.975C116.922 123.024 116.008 123.234 114.622 123.852C113.232 124.442 111.365 125.391 109.37 126.556C108.877 126.848 108.39 127.135 107.941 127.433C107.531 127.731 107.165 128.133 106.844 128.498C106.196 129.248 105.714 130.004 105.315 130.644C104.955 131.251 104.645 131.769 104.401 132.183C104.185 132.542 104.057 132.74 104.035 132.729Z" fill="#D79B8E"/>
</g>
</svg>
